…
dl %>%
  arrange(desc(n)) %>%
  mutate(cum_prop = cumsum(prop)) %>%
  print(n = 20)
#> # A tibble: 292 x 5
#>    package          n    prop  rank cum_prop
#>    <chr>        <dbl>   <dbl> <int>    <dbl>
#>  1 ggplot2    1277721 0.215       1    0.215
#>  2 tidyr       874486 0.147       2    0.362
#>  3 purrr       842567 0.142       3    0.503
#>  4 glue        796877 0.134       4    0.637
#>  5 broom       571030 0.0960      5    0.733
#>  6 dbplyr      373725 0.0628      6    0.796
#>  7 sf          316102 0.0531      7    0.849
#>  8 plotly      154538 0.0260      8    0.875
#>  9 recipes     122828 0.0206      9    0.896
#> 10 tidygraph    46927 0.00789    10    0.904
#> 11 janitor      32013 0.00538    11    0.909
#> 12 sjmisc       26743 0.00449    12    0.914
#> 13 DiagrammeR   26185 0.00440    13    0.918
#> 14 prophet      23095 0.00388    14    0.922
#> 15 padr         22353 0.00376    15    0.926
#> 16 mosaic       20333 0.00342    16    0.929
#> 17 tidyquant    19110 0.00321    17    0.932
#> 18 survminer    19004 0.00319    18    0.935
#> 19 ggformula    19002 0.00319    19    0.939
#> 20 skimr        18795 0.00316    20    0.942
#> # … with 272 more rows
…
