…
``` r
library(dplyr)
mtcars <- as_tibble(mtcars)
iris <- as_tibble(iris)
```

### `arrange()`: Arrange rows by variables

[`dplyr::arrange()`](https://dplyr.tidyverse.org/dev/reference/arrange.md)
orders the rows of a data frame by the values of one or more columns:

``` r
mtcars |> arrange(cyl, disp)
#> # A tibble: 32 × 11
#>     mpg   cyl  disp    hp  drat    wt  qsec    vs    am  gear  carb
#>   <dbl> <dbl> <dbl> <dbl> <dbl> <dbl> <dbl> <dbl> <dbl> <dbl> <dbl>
#> 1  33.9     4  71.1    65  4.22  1.84  19.9     1     1     4     1
#> 2  30.4     4  75.7    52  4.93  1.62  18.5     1     1     4     2
#> 3  32.4     4  78.7    66  4.08  2.2   19.5     1     1     4     1
#> 4  27.3     4  79      66  4.08  1.94  18.9     1     1     4     1
#> # ℹ 28 more rows
```

The [`desc()`](https://dplyr.tidyverse.org/dev/reference/desc.md) helper
allows you to order selected variables in descending order:

``` r
mtcars |> arrange(desc(cyl), desc(disp))
#> # A tibble: 32 × 11
#>     mpg   cyl  disp    hp  drat    wt  qsec    vs    am  gear  carb
#>   <dbl> <dbl> <dbl> <dbl> <dbl> <dbl> <dbl> <dbl> <dbl> <dbl> <dbl>
#> 1  10.4     8   472   205  2.93  5.25  18.0     0     0     3     4
#> 2  10.4     8   460   215  3     5.42  17.8     0     0     3     4
#> 3  14.7     8   440   230  3.23  5.34  17.4     0     0     3     4
#> 4  19.2     8   400   175  3.08  3.84  17.0     0     0     3     2
#> # ℹ 28 more rows
```

We can replicate in base R by using `[` with
[`order()`](https://rdrr.io/r/base/order.html):

``` r
mtcars[order(mtcars$cyl, mtcars$disp), , drop = FALSE]
#> # A tibble: 32 × 11
#>     mpg   cyl  disp    hp  drat    wt  qsec    vs    am  gear  carb
#>   <dbl> <dbl> <dbl> <dbl> <dbl> <dbl> <dbl> <dbl> <dbl> <dbl> <dbl>
#> 1  33.9     4  71.1    65  4.22  1.84  19.9     1     1     4     1
#> 2  30.4     4  75.7    52  4.93  1.62  18.5     1     1     4     2
#> 3  32.4     4  78.7    66  4.08  2.2   19.5     1     1     4     1
#> 4  27.3     4  79      66  4.08  1.94  18.9     1     1     4     1
#> # ℹ 28 more rows
```
…
### `distinct()`: Select distinct/unique rows

[`dplyr::distinct()`](https://dplyr.tidyverse.org/dev/reference/distinct.md)
selects unique rows:

``` r
df <- tibble(
  x = sample(10, 100, rep = TRUE),
  y = sample(10, 100, rep = TRUE)
)

df |> distinct(x) # selected columns
#> # A tibble: 10 × 1
#>       x
#>   <int>
#> 1     7
#> 2     5
#> 3     6
#> 4     4
#> # ℹ 6 more rows
df |> distinct(x, .keep_all = TRUE) # whole data frame
#> # A tibble: 10 × 2
#>       x     y
#>   <int> <int>
#> 1     7     4
#> 2     5     2
#> 3     6     9
#> 4     4     2
#> # ℹ 6 more rows
```

There are two equivalents in base R, depending on whether you want the
whole data frame, or just selected variables:

``` r
unique(df["x"]) # selected columns
#> # A tibble: 10 × 1
#>       x
#>   <int>
#> 1     7
#> 2     5
#> 3     6
#> 4     4
#> # ℹ 6 more rows
df[!duplicated(df$x), , drop = FALSE] # whole data frame
#> # A tibble: 10 × 2
#>       x     y
#>   <int> <int>
#> 1     7     4
#> 2     5     2
#> 3     6     9
#> 4     4     2
#> # ℹ 6 more rows
```

### `filter()`: Return rows with matching conditions

[`dplyr::filter()`](https://dplyr.tidyverse.org/dev/reference/filter.md)
selects rows where an expression is `TRUE`:

``` r
starwars |> filter(species == "Human")
#> # A tibble: 35 × 14
#>   name    height  mass hair_color skin_color eye_color birth_year sex  
#>   <chr>    <int> <dbl> <chr>      <chr>      <chr>          <dbl> <chr>
#> 1 Luke S…    172    77 blond      fair       blue            19   male 
#> 2 Darth …    202   136 none       white      yellow          41.9 male 
#> 3 Leia O…    150    49 brown      light      brown           19   fema…
#> 4 Owen L…    178   120 brown, gr… light      blue            52   male 
#> # ℹ 31 more rows
#> # ℹ 6 more variables: gender <chr>, homeworld <chr>, species <chr>,
#> #   films <list>, vehicles <list>, starships <list>
starwars |> filter(mass > 1000)
#> # A tibble: 1 × 14
#>   name    height  mass hair_color skin_color eye_color birth_year sex  
#>   <chr>    <int> <dbl> <chr>      <chr>      <chr>          <dbl> <chr>
#> 1 Jabba …    175  1358 NA         green-tan… orange           600 herm…
#> # ℹ 6 more variables: gender <chr>, homeworld <chr>, species <chr>,
#> #   films <list>, vehicles <list>, starships <list>
starwars |> filter(hair_color == "none" & eye_color == "black")
#> # A tibble: 9 × 14
#>   name    height  mass hair_color skin_color eye_color birth_year sex  
#>   <chr>    <int> <dbl> <chr>      <chr>      <chr>          <dbl> <chr>
#> 1 Nien N…    160    68 none       grey       black             NA male 
#> 2 Gasgano    122    NA none       white, bl… black             NA male 
#> 3 Kit Fi…    196    87 none       green      black             NA male 
#> 4 Plo Ko…    188    80 none       orange     black             22 male 
#> # ℹ 5 more rows
#> # ℹ 6 more variables: gender <chr>, homeworld <chr>, species <chr>,
#> #   films <list>, vehicles <list>, starships <list>
```

The closest base equivalent (and the inspiration for
[`filter()`](https://dplyr.tidyverse.org/dev/reference/filter.md)) is
[`subset()`](https://rdrr.io/r/base/subset.html):

``` r
subset(starwars, species == "Human")
#> # A tibble: 35 × 14
#>   name    height  mass hair_color skin_color eye_color birth_year sex  
#>   <chr>    <int> <dbl> <chr>      <chr>      <chr>          <dbl> <chr>
#> 1 Luke S…    172    77 blond      fair       blue            19   male 
#> 2 Darth …    202   136 none       white      yellow          41.9 male 
#> 3 Leia O…    150    49 brown      light      brown           19   fema…
#> 4 Owen L…    178   120 brown, gr… light      blue            52   male 
#> # ℹ 31 more rows
#> # ℹ 6 more variables: gender <chr>, homeworld <chr>, species <chr>,
#> #   films <list>, vehicles <list>, starships <list>
subset(starwars, mass > 1000)
#> # A tibble: 1 × 14
#>   name    height  mass hair_color skin_color eye_color birth_year sex  
#>   <chr>    <int> <dbl> <chr>      <chr>      <chr>          <dbl> <chr>
#> 1 Jabba …    175  1358 NA         green-tan… orange           600 herm…
#> # ℹ 6 more variables: gender <chr>, homeworld <chr>, species <chr>,
#> #   films <list>, vehicles <list>, starships <list>
subset(starwars, hair_color == "none" & eye_color == "black")
#> # A tibble: 9 × 14
#>   name    height  mass hair_color skin_color eye_color birth_year sex  
#>   <chr>    <int> <dbl> <chr>      <chr>      <chr>          <dbl> <chr>
#> 1 Nien N…    160    68 none       grey       black             NA male 
#> 2 Gasgano    122    NA none       white, bl… black             NA male 
#> 3 Kit Fi…    196    87 none       green      black             NA male 
#> 4 Plo Ko…    188    80 none       orange     black             22 male 
#> # ℹ 5 more rows
#> # ℹ 6 more variables: gender <chr>, homeworld <chr>, species <chr>,
#> #   films <list>, vehicles <list>, starships <list>
```

You can also use `[` but this also requires the use of
[`which()`](https://rdrr.io/r/base/which.html) to remove `NA`s:

``` r
starwars[which(starwars$species == "Human"), ]
#> # A tibble: 35 × 14
#>   name    height  mass hair_color skin_color eye_color birth_year sex  
#>   <chr>    <int> <dbl> <chr>      <chr>      <chr>          <dbl> <chr>
#> 1 Luke S…    172    77 blond      fair       blue            19   male 
#> 2 Darth …    202   136 none       white      yellow          41.9 male 
#> 3 Leia O…    150    49 brown      light      brown           19   fema…
#> 4 Owen L…    178   120 brown, gr… light      blue            52   male 
#> # ℹ 31 more rows
#> # ℹ 6 more variables: gender <chr>, homeworld <chr>, species <chr>,
#> #   films <list>, vehicles <list>, starships <list>
starwars[which(starwars$mass > 1000), ]
#> # A tibble: 1 × 14
#>   name    height  mass hair_color skin_color eye_color birth_year sex  
#>   <chr>    <int> <dbl> <chr>      <chr>      <chr>          <dbl> <chr>
#> 1 Jabba …    175  1358 NA         green-tan… orange           600 herm…
#> # ℹ 6 more variables: gender <chr>, homeworld <chr>, species <chr>,
#> #   films <list>, vehicles <list>, starships <list>
starwars[which(starwars$hair_color == "none" & starwars$eye_color == "black"), ]
#> # A tibble: 9 × 14
#>   name    height  mass hair_color skin_color eye_color birth_year sex  
#>   <chr>    <int> <dbl> <chr>      <chr>      <chr>          <dbl> <chr>
#> 1 Nien N…    160    68 none       grey       black             NA male 
#> 2 Gasgano    122    NA none       white, bl… black             NA male 
#> 3 Kit Fi…    196    87 none       green      black             NA male 
#> 4 Plo Ko…    188    80 none       orange     black             22 male 
#> # ℹ 5 more rows
#> # ℹ 6 more variables: gender <chr>, homeworld <chr>, species <chr>,
#> #   films <list>, vehicles <list>, starships <list>
```

### `mutate()`: Create or transform variables

[`dplyr::mutate()`](https://dplyr.tidyverse.org/dev/reference/mutate.md)
creates new variables from existing variables:

``` r
df |> mutate(z = x + y, z2 = z^2)
#> # A tibble: 100 × 4
#>       x     y     z    z2
#>   <int> <int> <int> <dbl>
#> 1     7     4    11   121
#> 2     5     2     7    49
#> 3     6     9    15   225
#> 4     4     2     6    36
#> # ℹ 96 more rows
```
…
### `relocate()`: Change column order

[`dplyr::relocate()`](https://dplyr.tidyverse.org/dev/reference/relocate.md)
makes it easy to move a set of columns to a new position (by default,
the front):

``` r
# to front
mtcars |> relocate(gear, carb)
#> # A tibble: 32 × 13
#>    gear  carb   mpg   cyl  disp    hp  drat    wt  qsec    vs    am
#>   <dbl> <dbl> <dbl> <dbl> <dbl> <dbl> <dbl> <dbl> <dbl> <dbl> <dbl>
#> 1     4     4  21       6   160   110  3.9   2.62  16.5     0     1
#> 2     4     4  21       6   160   110  3.9   2.88  17.0     0     1
#> 3     4     1  22.8     4   108    93  3.85  2.32  18.6     1     1
#> 4     3     1  21.4     6   258   110  3.08  3.22  19.4     1     0
#> # ℹ 28 more rows
#> # ℹ 2 more variables: cyl2 <dbl>, cyl4 <dbl>

# to back
mtcars |> relocate(mpg, cyl, .after = last_col())
#> # A tibble: 32 × 13
#>    disp    hp  drat    wt  qsec    vs    am  gear  carb  cyl2  cyl4
#>   <dbl> <dbl> <dbl> <dbl> <dbl> <dbl> <dbl> <dbl> <dbl> <dbl> <dbl>
#> 1   160   110  3.9   2.62  16.5     0     1     4     4    12    24
#> 2   160   110  3.9   2.88  17.0     0     1     4     4    12    24
#> 3   108    93  3.85  2.32  18.6     1     1     4     1     8    16
#> 4   258   110  3.08  3.22  19.4     1     0     3     1    12    24
#> # ℹ 28 more rows
#> # ℹ 2 more variables: mpg <dbl>, cyl <dbl>
```

We can replicate this in base R with a little set manipulation:

``` r
mtcars[union(c("gear", "carb"), names(mtcars))]
#> # A tibble: 32 × 13
#>    gear  carb   mpg   cyl  disp    hp  drat    wt  qsec    vs    am
#>   <dbl> <dbl> <dbl> <dbl> <dbl> <dbl> <dbl> <dbl> <dbl> <dbl> <dbl>
#> 1     4     4  21       6   160   110  3.9   2.62  16.5     0     1
#> 2     4     4  21       6   160   110  3.9   2.88  17.0     0     1
#> 3     4     1  22.8     4   108    93  3.85  2.32  18.6     1     1
#> 4     3     1  21.4     6   258   110  3.08  3.22  19.4     1     0
#> # ℹ 28 more rows
#> # ℹ 2 more variables: cyl2 <dbl>, cyl4 <dbl>

to_back <- c("mpg", "cyl")
mtcars[c(setdiff(names(mtcars), to_back), to_back)]
#> # A tibble: 32 × 13
#>    disp    hp  drat    wt  qsec    vs    am  gear  carb  cyl2  cyl4
#>   <dbl> <dbl> <dbl> <dbl> <dbl> <dbl> <dbl> <dbl> <dbl> <dbl> <dbl>
#> 1   160   110  3.9   2.62  16.5     0     1     4     4    12    24
#> 2   160   110  3.9   2.88  17.0     0     1     4     4    12    24
#> 3   108    93  3.85  2.32  18.6     1     1     4     1     8    16
#> 4   258   110  3.08  3.22  19.4     1     0     3     1    12    24
#> # ℹ 28 more rows
#> # ℹ 2 more variables: mpg <dbl>, cyl <dbl>
```

Moving columns to somewhere in the middle requires a little more set
twiddling.

### `rename()`: Rename variables by name

[`dplyr::rename()`](https://dplyr.tidyverse.org/dev/reference/rename.md)
allows you to rename variables by name or position:

``` r
iris |> rename(sepal_length = Sepal.Length, sepal_width = 2)
#> # A tibble: 150 × 5
#>   sepal_length sepal_width Petal.Length Petal.Width Species
#>          <dbl>       <dbl>        <dbl>       <dbl> <fct>  
#> 1          5.1         3.5          1.4         0.2 setosa 
#> 2          4.9         3            1.4         0.2 setosa 
#> 3          4.7         3.2          1.3         0.2 setosa 
#> 4          4.6         3.1          1.5         0.2 setosa 
#> # ℹ 146 more rows
```
…
Renaming variables by name requires a bit more work:

``` r
names(iris2)[names(iris2) == "Sepal.Length"] <- "sepal_length"
```

### `rename_with()`: Rename variables with a function

[`dplyr::rename_with()`](https://dplyr.tidyverse.org/dev/reference/rename.md)
transform column names with a function:

``` r
iris |> rename_with(toupper)
#> # A tibble: 150 × 5
#>   SEPAL.LENGTH SEPAL.WIDTH PETAL.LENGTH PETAL.WIDTH SPECIES
#>          <dbl>       <dbl>        <dbl>       <dbl> <fct>  
#> 1          5.1         3.5          1.4         0.2 setosa 
#> 2          4.9         3            1.4         0.2 setosa 
#> 3          4.7         3.2          1.3         0.2 setosa 
#> 4          4.6         3.1          1.5         0.2 setosa 
#> # ℹ 146 more rows
```

A similar effect can be achieved with
[`setNames()`](https://rdrr.io/r/stats/setNames.html) in base R:

``` r
setNames(iris, toupper(names(iris)))
#> # A tibble: 150 × 5
#>   SEPAL.LENGTH SEPAL.WIDTH PETAL.LENGTH PETAL.WIDTH SPECIES
#>          <dbl>       <dbl>        <dbl>       <dbl> <fct>  
#> 1          5.1         3.5          1.4         0.2 setosa 
#> 2          4.9         3            1.4         0.2 setosa 
#> 3          4.7         3.2          1.3         0.2 setosa 
#> 4          4.6         3.1          1.5         0.2 setosa 
#> # ℹ 146 more rows
```

### `select()`: Select variables by name

[`dplyr::select()`](https://dplyr.tidyverse.org/dev/reference/select.md)
subsets columns by position, name, function of name, or other property:

``` r
iris |> select(1:3)
#> # A tibble: 150 × 3
#>   Sepal.Length Sepal.Width Petal.Length
#>          <dbl>       <dbl>        <dbl>
#> 1          5.1         3.5          1.4
#> 2          4.9         3            1.4
#> 3          4.7         3.2          1.3
#> 4          4.6         3.1          1.5
#> # ℹ 146 more rows
iris |> select(Species, Sepal.Length)
#> # A tibble: 150 × 2
#>   Species Sepal.Length
#>   <fct>          <dbl>
#> 1 setosa           5.1
#> 2 setosa           4.9
#> 3 setosa           4.7
#> 4 setosa           4.6
#> # ℹ 146 more rows
iris |> select(starts_with("Petal"))
#> # A tibble: 150 × 2
#>   Petal.Length Petal.Width
#>          <dbl>       <dbl>
#> 1          1.4         0.2
#> 2          1.4         0.2
#> 3          1.3         0.2
#> 4          1.5         0.2
#> # ℹ 146 more rows
iris |> select(where(is.factor))
#> # A tibble: 150 × 1
#>   Species
#>   <fct>  
#> 1 setosa 
#> 2 setosa 
#> 3 setosa 
#> 4 setosa 
#> # ℹ 146 more rows
```

Subsetting variables by position is straightforward in base R:

``` r
iris[1:3] # single argument selects columns; never drops
#> # A tibble: 150 × 3
#>   Sepal.Length Sepal.Width Petal.Length
#>          <dbl>       <dbl>        <dbl>
#> 1          5.1         3.5          1.4
#> 2          4.9         3            1.4
#> 3          4.7         3.2          1.3
#> 4          4.6         3.1          1.5
#> # ℹ 146 more rows
iris[1:3, , drop = FALSE]
#> # A tibble: 3 × 5
#>   Sepal.Length Sepal.Width Petal.Length Petal.Width Species
#>          <dbl>       <dbl>        <dbl>       <dbl> <fct>  
#> 1          5.1         3.5          1.4         0.2 setosa 
#> 2          4.9         3            1.4         0.2 setosa 
#> 3          4.7         3.2          1.3         0.2 setosa
```

You have two options to subset by name:

``` r
iris[c("Species", "Sepal.Length")]
#> # A tibble: 150 × 2
#>   Species Sepal.Length
#>   <fct>          <dbl>
#> 1 setosa           5.1
#> 2 setosa           4.9
#> 3 setosa           4.7
#> 4 setosa           4.6
#> # ℹ 146 more rows
subset(iris, select = c(Species, Sepal.Length))
#> # A tibble: 150 × 2
#>   Species Sepal.Length
#>   <fct>          <dbl>
#> 1 setosa           5.1
#> 2 setosa           4.9
#> 3 setosa           4.7
#> 4 setosa           4.6
#> # ℹ 146 more rows
```

Subsetting by function of name requires a bit of work with
[`grep()`](https://rdrr.io/r/base/grep.html):

``` r
iris[grep("^Petal", names(iris))]
#> # A tibble: 150 × 2
#>   Petal.Length Petal.Width
#>          <dbl>       <dbl>
#> 1          1.4         0.2
#> 2          1.4         0.2
#> 3          1.3         0.2
#> 4          1.5         0.2
#> # ℹ 146 more rows
```

And you can use [`Filter()`](https://rdrr.io/r/base/funprog.html) to
subset by type:

``` r
Filter(is.factor, iris)
#> # A tibble: 150 × 1
#>   Species
#>   <fct>  
#> 1 setosa 
#> 2 setosa 
#> 3 setosa 
#> 4 setosa 
#> # ℹ 146 more rows
```
…
You can see a variety of other options at
<https://gist.github.com/hadley/c430501804349d382ce90754936ab8ec>.

### `slice()`: Choose rows by position

[`slice()`](https://dplyr.tidyverse.org/dev/reference/slice.md) selects
rows with their location:

``` r
slice(mtcars, 25:n())
#> # A tibble: 8 × 13
#>     mpg   cyl  disp    hp  drat    wt  qsec    vs    am  gear  carb
#>   <dbl> <dbl> <dbl> <dbl> <dbl> <dbl> <dbl> <dbl> <dbl> <dbl> <dbl>
#> 1  19.2     8 400     175  3.08  3.84  17.0     0     0     3     2
#> 2  27.3     4  79      66  4.08  1.94  18.9     1     1     4     1
#> 3  26       4 120.     91  4.43  2.14  16.7     0     1     5     2
#> 4  30.4     4  95.1   113  3.77  1.51  16.9     1     1     5     2
#> # ℹ 4 more rows
#> # ℹ 2 more variables: cyl2 <dbl>, cyl4 <dbl>
```

This is straightforward to replicate with `[`:

``` r
mtcars[25:nrow(mtcars), , drop = FALSE]
#> # A tibble: 8 × 13
#>     mpg   cyl  disp    hp  drat    wt  qsec    vs    am  gear  carb
#>   <dbl> <dbl> <dbl> <dbl> <dbl> <dbl> <dbl> <dbl> <dbl> <dbl> <dbl>
#> 1  19.2     8 400     175  3.08  3.84  17.0     0     0     3     2
#> 2  27.3     4  79      66  4.08  1.94  18.9     1     1     4     1
#> 3  26       4 120.     91  4.43  2.14  16.7     0     1     5     2
#> 4  30.4     4  95.1   113  3.77  1.51  16.9     1     1     5     2
#> # ℹ 4 more rows
#> # ℹ 2 more variables: cyl2 <dbl>, cyl4 <dbl>
```
…
