…
## Data: starwars

To explore the basic data manipulation verbs of dplyr, we’ll use the
dataset `starwars`. This dataset contains 87 characters and comes from
the [Star Wars API](https://swapi.py4e.com/), and is documented in
[`?starwars`](https://dplyr.tidyverse.org/dev/reference/starwars.md)

``` r
dim(starwars)
#> [1] 87 14
starwars
#> # A tibble: 87 × 14
#>   name    height  mass hair_color skin_color eye_color birth_year sex  
#>   <chr>    <int> <dbl> <chr>      <chr>      <chr>          <dbl> <chr>
#> 1 Luke S…    172    77 blond      fair       blue            19   male 
#> 2 C-3PO      167    75 NA         gold       yellow         112   none 
#> 3 R2-D2       96    32 NA         white, bl… red             33   none 
#> 4 Darth …    202   136 none       white      yellow          41.9 male 
#> # ℹ 83 more rows
#> # ℹ 6 more variables: gender <chr>, homeworld <chr>, species <chr>,
#> #   films <list>, vehicles <list>, starships <list>
```
…
### Filter rows with `filter()`

[`filter()`](https://dplyr.tidyverse.org/dev/reference/filter.md) allows
you to select a subset of rows in a data frame. Like all single verbs,
the first argument is the tibble (or data frame). The second and
subsequent arguments refer to variables within that data frame,
selecting rows where the expression is `TRUE`.

For example, we can select all character with light skin color and brown
eyes with:

``` r
starwars |> filter(skin_color == "light", eye_color == "brown")
#> # A tibble: 7 × 14
#>   name    height  mass hair_color skin_color eye_color birth_year sex  
#>   <chr>    <int> <dbl> <chr>      <chr>      <chr>          <dbl> <chr>
#> 1 Leia O…    150    49 brown      light      brown             19 fema…
#> 2 Biggs …    183    84 black      light      brown             24 male 
#> 3 Padmé …    185    45 brown      light      brown             46 fema…
#> 4 Cordé      157    NA brown      light      brown             NA NA   
#> # ℹ 3 more rows
#> # ℹ 6 more variables: gender <chr>, homeworld <chr>, species <chr>,
#> #   films <list>, vehicles <list>, starships <list>
```
…
### Arrange rows with `arrange()`

[`arrange()`](https://dplyr.tidyverse.org/dev/reference/arrange.md)
works similarly to
[`filter()`](https://dplyr.tidyverse.org/dev/reference/filter.md) except
that instead of filtering or selecting rows, it reorders them. It takes
a data frame, and a set of column names (or more complicated
expressions) to order by. If you provide more than one column name, each
additional column will be used to break ties in the values of preceding
columns:

``` r
starwars |> arrange(height, mass)
#> # A tibble: 87 × 14
#>   name    height  mass hair_color skin_color eye_color birth_year sex  
#>   <chr>    <int> <dbl> <chr>      <chr>      <chr>          <dbl> <chr>
#> 1 Yoda        66    17 white      green      brown            896 male 
#> 2 Ratts …     79    15 none       grey, blue unknown           NA male 
#> 3 Wicket…     88    20 brown      brown      brown              8 male 
#> 4 Dud Bo…     94    45 none       blue, grey yellow            NA male 
#> # ℹ 83 more rows
#> # ℹ 6 more variables: gender <chr>, homeworld <chr>, species <chr>,
#> #   films <list>, vehicles <list>, starships <list>
```

Use [`desc()`](https://dplyr.tidyverse.org/dev/reference/desc.md) to
order a column in descending order:

``` r
starwars |> arrange(desc(height))
#> # A tibble: 87 × 14
#>   name    height  mass hair_color skin_color eye_color birth_year sex  
#>   <chr>    <int> <dbl> <chr>      <chr>      <chr>          <dbl> <chr>
#> 1 Yarael…    264    NA none       white      yellow            NA male 
#> 2 Tarfful    234   136 brown      brown      blue              NA male 
#> 3 Lama Su    229    88 none       grey       black             NA male 
#> 4 Chewba…    228   112 brown      unknown    blue             200 male 
#> # ℹ 83 more rows
#> # ℹ 6 more variables: gender <chr>, homeworld <chr>, species <chr>,
#> #   films <list>, vehicles <list>, starships <list>
```

### Choose rows using their position with `slice()`

[`slice()`](https://dplyr.tidyverse.org/dev/reference/slice.md) lets you
index rows by their (integer) locations. It allows you to select,
remove, and duplicate rows.

We can get characters from row numbers 5 through 10.

``` r
starwars |> slice(5:10)
#> # A tibble: 6 × 14
#>   name    height  mass hair_color skin_color eye_color birth_year sex  
#>   <chr>    <int> <dbl> <chr>      <chr>      <chr>          <dbl> <chr>
#> 1 Leia O…    150    49 brown      light      brown             19 fema…
#> 2 Owen L…    178   120 brown, gr… light      blue              52 male 
#> 3 Beru W…    165    75 brown      light      blue              47 fema…
#> 4 R5-D4       97    32 NA         white, red red               NA none 
#> # ℹ 2 more rows
#> # ℹ 6 more variables: gender <chr>, homeworld <chr>, species <chr>,
#> #   films <list>, vehicles <list>, starships <list>
```
…
- [`slice_sample()`](https://dplyr.tidyverse.org/dev/reference/slice.md)
  randomly selects rows. Use the option prop to choose a certain
  proportion of the cases.

``` r
starwars |> slice_sample(n = 5)
#> # A tibble: 5 × 14
#>   name    height  mass hair_color skin_color eye_color birth_year sex  
#>   <chr>    <int> <dbl> <chr>      <chr>      <chr>          <dbl> <chr>
#> 1 Ayla S…    178  55   none       blue       hazel             48 fema…
#> 2 Bossk      190 113   none       green      red               53 male 
#> 3 San Hi…    191  NA   none       grey       gold              NA male 
#> 4 Lumina…    170  56.2 black      yellow     blue              58 fema…
#> # ℹ 1 more row
#> # ℹ 6 more variables: gender <chr>, homeworld <chr>, species <chr>,
#> #   films <list>, vehicles <list>, starships <list>
starwars |> slice_sample(prop = 0.1)
#> # A tibble: 8 × 14
#>   name    height  mass hair_color skin_color eye_color birth_year sex  
#>   <chr>    <int> <dbl> <chr>      <chr>      <chr>          <dbl> <chr>
#> 1 Qui-Go…    193    89 brown      fair       blue              92 male 
#> 2 Jango …    183    79 black      tan        brown             66 male 
#> 3 Jocast…    167    NA white      fair       blue              NA fema…
#> 4 Zam We…    168    55 blonde     fair, gre… yellow            NA fema…
#> # ℹ 4 more rows
#> # ℹ 6 more variables: gender <chr>, homeworld <chr>, species <chr>,
#> #   films <list>, vehicles <list>, starships <list>
```
…
### Select columns with `select()`

Often you work with large datasets with many columns but only a few are
actually of interest to you.
[`select()`](https://dplyr.tidyverse.org/dev/reference/select.md) allows
you to rapidly zoom in on a useful subset using operations that usually
only work on numeric variable positions:

``` r
# Select columns by name
starwars |> select(hair_color, skin_color, eye_color)
#> # A tibble: 87 × 3
#>   hair_color skin_color  eye_color
#>   <chr>      <chr>       <chr>    
#> 1 blond      fair        blue     
#> 2 NA         gold        yellow   
#> 3 NA         white, blue red      
#> 4 none       white       yellow   
#> # ℹ 83 more rows
# Select all columns between hair_color and eye_color (inclusive)
starwars |> select(hair_color:eye_color)
#> # A tibble: 87 × 3
#>   hair_color skin_color  eye_color
#>   <chr>      <chr>       <chr>    
#> 1 blond      fair        blue     
#> 2 NA         gold        yellow   
#> 3 NA         white, blue red      
#> 4 none       white       yellow   
#> # ℹ 83 more rows
# Select all columns except those from hair_color to eye_color (inclusive)
starwars |> select(!(hair_color:eye_color))
#> # A tibble: 87 × 11
#>   name     height  mass birth_year sex   gender homeworld species films
#>   <chr>     <int> <dbl>      <dbl> <chr> <chr>  <chr>     <chr>   <lis>
#> 1 Luke Sk…    172    77       19   male  mascu… Tatooine  Human   <chr>
#> 2 C-3PO       167    75      112   none  mascu… Tatooine  Droid   <chr>
#> 3 R2-D2        96    32       33   none  mascu… Naboo     Droid   <chr>
#> 4 Darth V…    202   136       41.9 male  mascu… Tatooine  Human   <chr>
#> # ℹ 83 more rows
#> # ℹ 2 more variables: vehicles <list>, starships <list>
# Select all columns ending with color
starwars |> select(ends_with("color"))
#> # A tibble: 87 × 3
#>   hair_color skin_color  eye_color
#>   <chr>      <chr>       <chr>    
#> 1 blond      fair        blue     
#> 2 NA         gold        yellow   
#> 3 NA         white, blue red      
#> 4 none       white       yellow   
#> # ℹ 83 more rows
```
…
You can rename variables with
[`select()`](https://dplyr.tidyverse.org/dev/reference/select.md) by
using named arguments:

``` r
starwars |> select(home_world = homeworld)
#> # A tibble: 87 × 1
#>   home_world
#>   <chr>     
#> 1 Tatooine  
#> 2 Tatooine  
#> 3 Naboo     
#> 4 Tatooine  
#> # ℹ 83 more rows
```

But because
[`select()`](https://dplyr.tidyverse.org/dev/reference/select.md) drops
all the variables not explicitly mentioned, it’s not that useful.
Instead, use
[`rename()`](https://dplyr.tidyverse.org/dev/reference/rename.md):

``` r
starwars |> rename(home_world = homeworld)
#> # A tibble: 87 × 14
#>   name    height  mass hair_color skin_color eye_color birth_year sex  
#>   <chr>    <int> <dbl> <chr>      <chr>      <chr>          <dbl> <chr>
#> 1 Luke S…    172    77 blond      fair       blue            19   male 
#> 2 C-3PO      167    75 NA         gold       yellow         112   none 
#> 3 R2-D2       96    32 NA         white, bl… red             33   none 
#> 4 Darth …    202   136 none       white      yellow          41.9 male 
#> # ℹ 83 more rows
#> # ℹ 6 more variables: gender <chr>, home_world <chr>, species <chr>,
#> #   films <list>, vehicles <list>, starships <list>
```

### Add new columns with `mutate()`

Besides selecting sets of existing columns, it’s often useful to add new
columns that are functions of existing columns. This is the job of
[`mutate()`](https://dplyr.tidyverse.org/dev/reference/mutate.md):

``` r
starwars |> mutate(height_m = height / 100)
#> # A tibble: 87 × 15
#>   name    height  mass hair_color skin_color eye_color birth_year sex  
#>   <chr>    <int> <dbl> <chr>      <chr>      <chr>          <dbl> <chr>
#> 1 Luke S…    172    77 blond      fair       blue            19   male 
#> 2 C-3PO      167    75 NA         gold       yellow         112   none 
#> 3 R2-D2       96    32 NA         white, bl… red             33   none 
#> 4 Darth …    202   136 none       white      yellow          41.9 male 
#> # ℹ 83 more rows
#> # ℹ 7 more variables: gender <chr>, homeworld <chr>, species <chr>,
#> #   films <list>, vehicles <list>, starships <list>, height_m <dbl>
```

We can’t see the height in meters we just calculated, but we can fix
that using a select command.

``` r
starwars |>
  mutate(height_m = height / 100) |>
  select(height_m, height, everything())
#> # A tibble: 87 × 15
#>   height_m height name            mass hair_color skin_color  eye_color
#>      <dbl>  <int> <chr>          <dbl> <chr>      <chr>       <chr>    
#> 1     1.72    172 Luke Skywalker    77 blond      fair        blue     
#> 2     1.67    167 C-3PO             75 NA         gold        yellow   
#> 3     0.96     96 R2-D2             32 NA         white, blue red      
#> 4     2.02    202 Darth Vader      136 none       white       yellow   
#> # ℹ 83 more rows
#> # ℹ 8 more variables: birth_year <dbl>, sex <chr>, gender <chr>,
#> #   homeworld <chr>, species <chr>, films <list>, vehicles <list>,
#> #   starships <list>
```

[`dplyr::mutate()`](https://dplyr.tidyverse.org/dev/reference/mutate.md)
is similar to the base
[`transform()`](https://rdrr.io/r/base/transform.html), but allows you
to refer to columns that you’ve just created:

``` r
starwars |>
  mutate(
    height_m = height / 100,
    BMI = mass / (height_m^2)
  ) |>
  select(BMI, everything())
#> # A tibble: 87 × 16
#>     BMI name    height  mass hair_color skin_color eye_color birth_year
#>   <dbl> <chr>    <int> <dbl> <chr>      <chr>      <chr>          <dbl>
#> 1  26.0 Luke S…    172    77 blond      fair       blue            19  
#> 2  26.9 C-3PO      167    75 NA         gold       yellow         112  
#> 3  34.7 R2-D2       96    32 NA         white, bl… red             33  
#> 4  33.3 Darth …    202   136 none       white      yellow          41.9
#> # ℹ 83 more rows
#> # ℹ 8 more variables: sex <chr>, gender <chr>, homeworld <chr>,
#> #   species <chr>, films <list>, vehicles <list>, starships <list>,
#> #   height_m <dbl>
```

If you only want to keep the new variables, use `.keep = "none"`:

``` r
starwars |>
  mutate(
    height_m = height / 100,
    BMI = mass / (height_m^2),
    .keep = "none"
  )
#> # A tibble: 87 × 2
#>   height_m   BMI
#>      <dbl> <dbl>
#> 1     1.72  26.0
#> 2     1.67  26.9
#> 3     0.96  34.7
#> 4     2.02  33.3
#> # ℹ 83 more rows
```

### Change column order with `relocate()`

Use a similar syntax as
[`select()`](https://dplyr.tidyverse.org/dev/reference/select.md) to
move blocks of columns at once

``` r
starwars |> relocate(sex:homeworld, .before = height)
#> # A tibble: 87 × 14
#>   name        sex   gender homeworld height  mass hair_color skin_color
#>   <chr>       <chr> <chr>  <chr>      <int> <dbl> <chr>      <chr>     
#> 1 Luke Skywa… male  mascu… Tatooine     172    77 blond      fair      
#> 2 C-3PO       none  mascu… Tatooine     167    75 NA         gold      
#> 3 R2-D2       none  mascu… Naboo         96    32 NA         white, bl…
#> 4 Darth Vader male  mascu… Tatooine     202   136 none       white     
#> # ℹ 83 more rows
#> # ℹ 6 more variables: eye_color <chr>, birth_year <dbl>,
#> #   species <chr>, films <list>, vehicles <list>, starships <list>
```
…
``` r
summarise(
  select(
    group_by(starwars, species, sex),
    height,
    mass
  ),
  height = mean(height, na.rm = TRUE),
  mass = mean(mass, na.rm = TRUE)
)
#> Adding missing grouping variables: `species`, `sex`
#> `summarise()` has regrouped the output.
#> # A tibble: 41 × 4
#> # Groups:   species [38]
#>   species  sex   height  mass
#>   <chr>    <chr>  <dbl> <dbl>
#> 1 Aleena   male      79    15
#> 2 Besalisk male     198   102
#> 3 Cerean   male     198    82
#> 4 Chagrian male     196   NaN
#> # ℹ 37 more rows
```
…
Selecting operations expect column names and positions. Hence, when you
call [`select()`](https://dplyr.tidyverse.org/dev/reference/select.md)
with bare variable names, they actually represent their own positions in
the tibble. The following calls are completely equivalent from dplyr’s
point of view:

``` r
# `name` represents the integer 1
select(starwars, name)
#> # A tibble: 87 × 1
#>   name          
#>   <chr>         
#> 1 Luke Skywalker
#> 2 C-3PO         
#> 3 R2-D2         
#> 4 Darth Vader   
#> # ℹ 83 more rows
select(starwars, 1)
#> # A tibble: 87 × 1
#>   name          
#>   <chr>         
#> 1 Luke Skywalker
#> 2 C-3PO         
#> 3 R2-D2         
#> 4 Darth Vader   
#> # ℹ 83 more rows
```

By the same token, this means that you cannot refer to variables from
the surrounding context if they have the same name as one of the
columns. In the following example, `height` still represents 2, not 5:

``` r
height <- 5
select(starwars, height)
#> # A tibble: 87 × 1
#>   height
#>    <int>
#> 1    172
#> 2    167
#> 3     96
#> 4    202
#> # ℹ 83 more rows
```

One useful subtlety is that this only applies to bare names and to
selecting calls like `c(height, mass)` or `height:mass`. In all other
cases, the columns of the data frame are not put in scope. This allows
you to refer to contextual variables in selection helpers:

``` r
name <- "color"
select(starwars, ends_with(name))
#> # A tibble: 87 × 3
#>   hair_color skin_color  eye_color
#>   <chr>      <chr>       <chr>    
#> 1 blond      fair        blue     
#> 2 NA         gold        yellow   
#> 3 NA         white, blue red      
#> 4 none       white       yellow   
#> # ℹ 83 more rows
```

These semantics are usually intuitive. But note the subtle difference:

``` r
name <- 5
select(starwars, name, identity(name))
#> # A tibble: 87 × 2
#>   name           skin_color 
#>   <chr>          <chr>      
#> 1 Luke Skywalker fair       
#> 2 C-3PO          gold       
#> 3 R2-D2          white, blue
#> 4 Darth Vader    white      
#> # ℹ 83 more rows
```

In the first argument, `name` represents its own position `1`. In the
second argument, `name` is evaluated in the surrounding context and
represents the fifth column.

For a long time,
[`select()`](https://dplyr.tidyverse.org/dev/reference/select.md) used
to only understand column positions. Counting from dplyr 0.6, it now
understands column names as well. This makes it a bit easier to program
with [`select()`](https://dplyr.tidyverse.org/dev/reference/select.md):

``` r
vars <- c("name", "height")
select(starwars, all_of(vars), "mass")
#> # A tibble: 87 × 3
#>   name           height  mass
#>   <chr>           <int> <dbl>
#> 1 Luke Skywalker    172    77
#> 2 C-3PO             167    75
#> 3 R2-D2              96    32
#> 4 Darth Vader       202   136
#> # ℹ 83 more rows
```
…
``` r
df <- starwars |> select(name, height, mass)
```

When we use
[`select()`](https://dplyr.tidyverse.org/dev/reference/select.md), the
bare column names stand for their own positions in the tibble. For
[`mutate()`](https://dplyr.tidyverse.org/dev/reference/mutate.md) on the
other hand, column symbols represent the actual column vectors stored in
the tibble. Consider what happens if we give a string or a number to
[`mutate()`](https://dplyr.tidyverse.org/dev/reference/mutate.md):

``` r
mutate(df, "height", 2)
#> # A tibble: 87 × 5
#>   name           height  mass `"height"`   `2`
#>   <chr>           <int> <dbl> <chr>      <dbl>
#> 1 Luke Skywalker    172    77 height         2
#> 2 C-3PO             167    75 height         2
#> 3 R2-D2              96    32 height         2
#> 4 Darth Vader       202   136 height         2
#> # ℹ 83 more rows
```

[`mutate()`](https://dplyr.tidyverse.org/dev/reference/mutate.md) gets
length-1 vectors that it interprets as new columns in the data frame.
These vectors are recycled so they match the number of rows. That’s why
it doesn’t make sense to supply expressions like `"height" + 10` to
[`mutate()`](https://dplyr.tidyverse.org/dev/reference/mutate.md). This
amounts to adding 10 to a string! The correct expression is:

``` r
mutate(df, height + 10)
#> # A tibble: 87 × 4
#>   name           height  mass `height + 10`
#>   <chr>           <int> <dbl>         <dbl>
#> 1 Luke Skywalker    172    77           182
#> 2 C-3PO             167    75           177
#> 3 R2-D2              96    32           106
#> 4 Darth Vader       202   136           212
#> # ℹ 83 more rows
```

In the same way, you can unquote values from the context if these values
represent a valid column. They must be either length 1 (they then get
recycled) or have the same length as the number of rows. In the
following example we create a new vector that we add to the data frame:

``` r
var <- seq(1, nrow(df))
mutate(df, new = var)
#> # A tibble: 87 × 4
#>   name           height  mass   new
#>   <chr>           <int> <dbl> <int>
#> 1 Luke Skywalker    172    77     1
#> 2 C-3PO             167    75     2
#> 3 R2-D2              96    32     3
#> 4 Darth Vader       202   136     4
#> # ℹ 83 more rows
```
…
