…
The most important grouping verb is
[`group_by()`](https://dplyr.tidyverse.org/dev/reference/group_by.md):
it takes a data frame and one or more variables to group by:

``` r
by_species <- starwars |> group_by(species)
by_sex_gender <- starwars |> group_by(sex, gender)
```

You can see the grouping when you print the data:

``` r
by_species
#> # A tibble: 87 × 14
#> # Groups:   species [38]
#>   name    height  mass hair_color skin_color eye_color birth_year sex  
#>   <chr>    <int> <dbl> <chr>      <chr>      <chr>          <dbl> <chr>
#> 1 Luke S…    172    77 blond      fair       blue            19   male 
#> 2 C-3PO      167    75 NA         gold       yellow         112   none 
#> 3 R2-D2       96    32 NA         white, bl… red             33   none 
#> 4 Darth …    202   136 none       white      yellow          41.9 male 
#> # ℹ 83 more rows
#> # ℹ 6 more variables: gender <chr>, homeworld <chr>, species <chr>,
#> #   films <list>, vehicles <list>, starships <list>
by_sex_gender
#> # A tibble: 87 × 14
#> # Groups:   sex, gender [6]
#>   name    height  mass hair_color skin_color eye_color birth_year sex  
#>   <chr>    <int> <dbl> <chr>      <chr>      <chr>          <dbl> <chr>
#> 1 Luke S…    172    77 blond      fair       blue            19   male 
#> 2 C-3PO      167    75 NA         gold       yellow         112   none 
#> 3 R2-D2       96    32 NA         white, bl… red             33   none 
#> 4 Darth …    202   136 none       white      yellow          41.9 male 
#> # ℹ 83 more rows
#> # ℹ 6 more variables: gender <chr>, homeworld <chr>, species <chr>,
#> #   films <list>, vehicles <list>, starships <list>
```

Or use [`tally()`](https://dplyr.tidyverse.org/dev/reference/count.md)
to count the number of rows in each group. The `sort` argument is useful
if you want to see the largest groups up front.

``` r
by_species |> tally()
#> # A tibble: 38 × 2
#>   species      n
#>   <chr>    <int>
#> 1 Aleena       1
#> 2 Besalisk     1
#> 3 Cerean       1
#> 4 Chagrian     1
#> # ℹ 34 more rows

by_sex_gender |> tally(sort = TRUE)
#> # A tibble: 6 × 3
#> # Groups:   sex [5]
#>   sex    gender        n
#>   <chr>  <chr>     <int>
#> 1 male   masculine    60
#> 2 female feminine     16
#> 3 none   masculine     5
#> 4 NA     NA            4
#> # ℹ 2 more rows
```

As well as grouping by existing variables, you can group by any function
of existing variables. This is equivalent to performing a
[`mutate()`](https://dplyr.tidyverse.org/dev/reference/mutate.md)
**before** the
[`group_by()`](https://dplyr.tidyverse.org/dev/reference/group_by.md):

``` r
bmi_breaks <- c(0, 18.5, 25, 30, Inf)

starwars |>
  group_by(bmi_cat = cut(mass/(height/100)^2, breaks=bmi_breaks)) |>
  tally()
#> # A tibble: 5 × 2
#>   bmi_cat       n
#>   <fct>     <int>
#> 1 (0,18.5]     10
#> 2 (18.5,25]    24
#> 3 (25,30]      13
#> 4 (30,Inf]     12
#> # ℹ 1 more row
```

## Group metadata

You can see underlying group data with
[`group_keys()`](https://dplyr.tidyverse.org/dev/reference/group_data.md).
It has one row for each group and one column for each grouping variable:

``` r
by_species |> group_keys()
#> # A tibble: 38 × 1
#>   species 
#>   <chr>   
#> 1 Aleena  
#> 2 Besalisk
#> 3 Cerean  
#> 4 Chagrian
#> # ℹ 34 more rows

by_sex_gender |> group_keys()
#> # A tibble: 6 × 2
#>   sex            gender   
#>   <chr>          <chr>    
#> 1 female         feminine 
#> 2 hermaphroditic masculine
#> 3 male           masculine
#> 4 none           feminine 
#> # ℹ 2 more rows
```
…
### Changing and adding to grouping variables

If you apply
[`group_by()`](https://dplyr.tidyverse.org/dev/reference/group_by.md) to
an already grouped dataset, will overwrite the existing grouping
variables. For example, the following code groups by `homeworld` instead
of `species`:

``` r
by_species |>
  group_by(homeworld) |>
  tally()
#> # A tibble: 49 × 2
#>   homeworld       n
#>   <chr>       <int>
#> 1 Alderaan        3
#> 2 Aleen Minor     1
#> 3 Bespin          1
#> 4 Bestine IV      1
#> # ℹ 45 more rows
```

To **augment** the grouping, using `.add = TRUE`[¹](#fn1). For example,
the following code groups by species and homeworld:

``` r
by_species |>
  group_by(homeworld, .add = TRUE) |>
  tally()
#> # A tibble: 57 × 3
#> # Groups:   species [38]
#>   species  homeworld       n
#>   <chr>    <chr>       <int>
#> 1 Aleena   Aleen Minor     1
#> 2 Besalisk Ojom            1
#> 3 Cerean   Cerea           1
#> 4 Chagrian Champala        1
#> # ℹ 53 more rows
```
…
### `summarise()`

[`summarise()`](https://dplyr.tidyverse.org/dev/reference/summarise.md)
computes a summary for each group. This means that it starts from
[`group_keys()`](https://dplyr.tidyverse.org/dev/reference/group_data.md),
adding summary variables to the right hand side:

``` r
by_species |>
  summarise(
    n = n(),
    height = mean(height, na.rm = TRUE)
  )
#> # A tibble: 38 × 3
#>   species      n height
#>   <chr>    <int>  <dbl>
#> 1 Aleena       1     79
#> 2 Besalisk     1    198
#> 3 Cerean       1    198
#> 4 Chagrian     1    196
#> # ℹ 34 more rows
```
…
### `select()`, `rename()`, and `relocate()`

[`rename()`](https://dplyr.tidyverse.org/dev/reference/rename.md) and
[`relocate()`](https://dplyr.tidyverse.org/dev/reference/relocate.md)
behave identically with grouped and ungrouped data because they only
affect the name or position of existing columns. Grouped
[`select()`](https://dplyr.tidyverse.org/dev/reference/select.md) is
almost identical to ungrouped select, except that it always includes the
grouping variables:

``` r
by_species |> select(mass)
#> Adding missing grouping variables: `species`
#> # A tibble: 87 × 2
#> # Groups:   species [38]
#>   species  mass
#>   <chr>   <dbl>
#> 1 Human      77
#> 2 Droid      75
#> 3 Droid      32
#> 4 Human     136
#> # ℹ 83 more rows
```
…
### `arrange()`

Grouped
[`arrange()`](https://dplyr.tidyverse.org/dev/reference/arrange.md) is
the same as ungrouped
[`arrange()`](https://dplyr.tidyverse.org/dev/reference/arrange.md),
unless you set `.by_group = TRUE`, in which case it will order first by
the grouping variables.

``` r
by_species |>
  arrange(desc(mass)) |>
  relocate(species, mass)
#> # A tibble: 87 × 14
#> # Groups:   species [38]
#>   species  mass name  height hair_color skin_color eye_color birth_year
#>   <chr>   <dbl> <chr>  <int> <chr>      <chr>      <chr>          <dbl>
#> 1 Hutt     1358 Jabb…    175 NA         green-tan… orange         600  
#> 2 Kaleesh   159 Grie…    216 none       brown, wh… green, y…       NA  
#> 3 Droid     140 IG-88    200 none       metal      red             15  
#> 4 Human     136 Dart…    202 none       white      yellow          41.9
#> # ℹ 83 more rows
#> # ℹ 6 more variables: sex <chr>, gender <chr>, homeworld <chr>,
#> #   films <list>, vehicles <list>, starships <list>

by_species |>
  arrange(desc(mass), .by_group = TRUE) |>
  relocate(species, mass)
#> # A tibble: 87 × 14
#> # Groups:   species [38]
#>   species  mass name  height hair_color skin_color eye_color birth_year
#>   <chr>   <dbl> <chr>  <int> <chr>      <chr>      <chr>          <dbl>
#> 1 Aleena     15 Ratt…     79 none       grey, blue unknown           NA
#> 2 Besali…   102 Dext…    198 none       brown      yellow            NA
#> 3 Cerean     82 Ki-A…    198 white      pale       yellow            92
#> 4 Chagri…    NA Mas …    196 none       blue       blue              NA
#> # ℹ 83 more rows
#> # ℹ 6 more variables: sex <chr>, gender <chr>, homeworld <chr>,
#> #   films <list>, vehicles <list>, starships <list>
```
…
### `mutate()`

In simple cases with vectorised functions, grouped and ungrouped
[`mutate()`](https://dplyr.tidyverse.org/dev/reference/mutate.md) give
the same results. They differ when used with summary functions:

``` r
# Subtract off global mean
starwars |>
  select(name, homeworld, mass) |>
  mutate(standard_mass = mass - mean(mass, na.rm = TRUE))
#> # A tibble: 87 × 4
#>   name           homeworld  mass standard_mass
#>   <chr>          <chr>     <dbl>         <dbl>
#> 1 Luke Skywalker Tatooine     77         -20.3
#> 2 C-3PO          Tatooine     75         -22.3
#> 3 R2-D2          Naboo        32         -65.3
#> 4 Darth Vader    Tatooine    136          38.7
#> # ℹ 83 more rows

# Subtract off homeworld mean
starwars |>
  select(name, homeworld, mass) |>
  group_by(homeworld) |>
  mutate(standard_mass = mass - mean(mass, na.rm = TRUE))
#> # A tibble: 87 × 4
#> # Groups:   homeworld [49]
#>   name           homeworld  mass standard_mass
#>   <chr>          <chr>     <dbl>         <dbl>
#> 1 Luke Skywalker Tatooine     77         -8.38
#> 2 C-3PO          Tatooine     75        -10.4 
#> 3 R2-D2          Naboo        32        -32.2 
#> 4 Darth Vader    Tatooine    136         50.6 
#> # ℹ 83 more rows
```

Or with window functions like
[`min_rank()`](https://dplyr.tidyverse.org/dev/reference/row_number.md):

``` r
# Overall rank
starwars |>
  select(name, homeworld, height) |>
  mutate(rank = min_rank(height))
#> # A tibble: 87 × 4
#>   name           homeworld height  rank
#>   <chr>          <chr>      <int> <int>
#> 1 Luke Skywalker Tatooine     172    28
#> 2 C-3PO          Tatooine     167    20
#> 3 R2-D2          Naboo         96     5
#> 4 Darth Vader    Tatooine     202    72
#> # ℹ 83 more rows

# Rank per homeworld
starwars |>
  select(name, homeworld, height) |>
  group_by(homeworld) |>
  mutate(rank = min_rank(height))
#> # A tibble: 87 × 4
#> # Groups:   homeworld [49]
#>   name           homeworld height  rank
#>   <chr>          <chr>      <int> <int>
#> 1 Luke Skywalker Tatooine     172     5
#> 2 C-3PO          Tatooine     167     4
#> 3 R2-D2          Naboo         96     1
#> 4 Darth Vader    Tatooine     202    10
#> # ℹ 83 more rows
```
…
A grouped
[`filter()`](https://dplyr.tidyverse.org/dev/reference/filter.md)
effectively does a
[`mutate()`](https://dplyr.tidyverse.org/dev/reference/mutate.md) to
generate a logical variable, and then only keeps the rows where the
variable is `TRUE`. This means that grouped filters can be used with
summary functions. For example, we can find the tallest character of
each species:

``` r
by_species |>
  select(name, species, height) |>
  filter(height == max(height))
#> # A tibble: 36 × 3
#> # Groups:   species [36]
#>   name                  species        height
#>   <chr>                 <chr>           <int>
#> 1 Greedo                Rodian            173
#> 2 Jabba Desilijic Tiure Hutt              175
#> 3 Yoda                  Yoda's species     66
#> 4 Bossk                 Trandoshan        190
#> # ℹ 32 more rows
```

You can also use
[`filter()`](https://dplyr.tidyverse.org/dev/reference/filter.md) to
remove entire groups. For example, the following code eliminates all
groups that only have a single member:

``` r
by_species |>
  filter(n() != 1) |>
  tally()
#> # A tibble: 9 × 2
#>   species      n
#>   <chr>    <int>
#> 1 Droid        6
#> 2 Gungan       3
#> 3 Human       35
#> 4 Kaminoan     2
#> # ℹ 5 more rows
```
…
[`slice()`](https://dplyr.tidyverse.org/dev/reference/slice.md) and
friends
([`slice_head()`](https://dplyr.tidyverse.org/dev/reference/slice.md),
[`slice_tail()`](https://dplyr.tidyverse.org/dev/reference/slice.md),
[`slice_sample()`](https://dplyr.tidyverse.org/dev/reference/slice.md),
[`slice_min()`](https://dplyr.tidyverse.org/dev/reference/slice.md) and
[`slice_max()`](https://dplyr.tidyverse.org/dev/reference/slice.md))
select rows within a group. For example, we can select the first
observation within each species:

``` r
by_species |>
  relocate(species) |>
  slice(1)
#> # A tibble: 38 × 14
#> # Groups:   species [38]
#>   species name  height  mass hair_color skin_color eye_color birth_year
#>   <chr>   <chr>  <int> <dbl> <chr>      <chr>      <chr>          <dbl>
#> 1 Aleena  Ratt…     79    15 none       grey, blue unknown           NA
#> 2 Besali… Dext…    198   102 none       brown      yellow            NA
#> 3 Cerean  Ki-A…    198    82 white      pale       yellow            92
#> 4 Chagri… Mas …    196    NA none       blue       blue              NA
#> # ℹ 34 more rows
#> # ℹ 6 more variables: sex <chr>, gender <chr>, homeworld <chr>,
#> #   films <list>, vehicles <list>, starships <list>
```

Similarly, we can use
[`slice_min()`](https://dplyr.tidyverse.org/dev/reference/slice.md) to
select the smallest `n` values of a variable:

``` r
by_species |>
  filter(!is.na(height)) |>
  slice_min(height, n = 2)
#> # A tibble: 47 × 14
#> # Groups:   species [38]
#>   name    height  mass hair_color skin_color eye_color birth_year sex  
#>   <chr>    <int> <dbl> <chr>      <chr>      <chr>          <dbl> <chr>
#> 1 Ratts …     79    15 none       grey, blue unknown           NA male 
#> 2 Dexter…    198   102 none       brown      yellow            NA male 
#> 3 Ki-Adi…    198    82 white      pale       yellow            92 male 
#> 4 Mas Am…    196    NA none       blue       blue              NA male 
#> # ℹ 43 more rows
#> # ℹ 6 more variables: gender <chr>, homeworld <chr>, species <chr>,
#> #   films <list>, vehicles <list>, starships <list>
```
…
