Programming with dplyr • dplyr
…
Any number of user-supplied expressions

If you want to take an arbitrary number of user supplied expressions,
use .... This is most often useful when you want to give
the user full control over a single part of the pipeline, like a
group_by() or a mutate().

my_summarise <- function(.data, ...) {
  .data %>%
    group_by(...) %>%
    summarise(mass = mean(mass, na.rm = TRUE), height = mean(height, na.rm = TRUE))
}

starwars %>% my_summarise(homeworld)
#> # A tibble: 49 × 3
#>   homeworld    mass height
#>   <chr>       <dbl>  <dbl>
#> 1 Alderaan       64   176.
#> 2 Aleen Minor    15    79 
#> 3 Bespin         79   175 
#> 4 Bestine IV    110   180 
#> # ℹ 45 more rows
starwars %>% my_summarise(sex, gender)
#> `summarise()` has grouped output by 'sex'. You can override using the
#> `.groups` argument.
#> # A tibble: 6 × 4
#> # Groups:   sex [5]
#>   sex            gender      mass height
#>   <chr>          <chr>      <dbl>  <dbl>
#> 1 female         feminine    54.7   172.
#> 2 hermaphroditic masculine 1358     175 
#> 3 male           masculine   80.2   179.
#> 4 none           feminine   NaN      96 
#> # ℹ 2 more rows
…
If your function returns multiple rows per group, then
you’ll need to switch from summarise() to
reframe(). summarise() is restricted to
returning 1 row summaries per group, but reframe() lifts
this restriction:

df %>%
  group_by(grp) %>%
  reframe(across(x:y, quantile_df, .unpack = TRUE))
#> # A tibble: 9 × 5
#>     grp x_val x_quant  y_val y_quant
#>   <int> <dbl>   <dbl>  <dbl>   <dbl>
#> 1     1 0.219    0.25 -0.710    0.25
#> 2     1 0.361    0.5   0.174    0.5 
#> 3     1 0.674    0.75  0.524    0.75
#> 4     2 0.315    0.25 -0.690    0.25
#> # ℹ 5 more rows

Transforming user-supplied variables

If you want the user to provide a set of data-variables that are then
transformed, use across() and pick():

my_summarise <- function(data, summary_vars) {
  data %>%
    summarise(across({{ summary_vars }}, ~ mean(., na.rm = TRUE)))
}
starwars %>% 
  group_by(species) %>% 
  my_summarise(c(mass, height))
#> # A tibble: 38 × 3
#>   species   mass height
#>   <chr>    <dbl>  <dbl>
#> 1 Aleena      15     79
#> 2 Besalisk   102    198
#> 3 Cerean      82    198
#> 4 Chagrian   NaN    196
#> # ℹ 34 more rows
…
