…
[`case_when()`](https://dplyr.tidyverse.org/dev/reference/case-and-replace-when.md)
is the most general function in the family. It works by evaluating each
case sequentially and using the first match for each element to
determine the corresponding value in the output. To demonstrate, we’ll
look at a dataset of some 5k times in minutes:

``` r
set.seed(123)
racers <- tibble(
  id = seq_len(100),
  time = round(sample(1200:2100, size = 100, replace = TRUE) / 60, 2)
)
racers
#> # A tibble: 100 × 2
#>       id  time
#>    <int> <dbl>
#>  1     1  26.9
#>  2     2  27.7
#>  3     3  23.0
#>  4     4  28.8
#>  5     5  23.2
#>  6     6  33.6
#>  7     7  22.0
#>  8     8  25.0
#>  9     9  23.8
#> 10    10  24.0
#> # ℹ 90 more rows
```
…
``` r
tiers <- racers |>
  mutate(
    tier = case_when(
      time < 23 ~ "A",
      time < 27 ~ "B",
      time < 30 ~ "C",
      time < 33 ~ "D"
    )
  )

tiers
#> # A tibble: 100 × 3
#>       id  time tier 
#>    <int> <dbl> <chr>
#>  1     1  26.9 B    
#>  2     2  27.7 C    
#>  3     3  23.0 A    
#>  4     4  28.8 C    
#>  5     5  23.2 B    
#>  6     6  33.6 NA   
#>  7     7  22.0 A    
#>  8     8  25.0 B    
#>  9     9  23.8 B    
#> 10    10  24.0 B    
#> # ℹ 90 more rows
```
…
``` r
racers |>
  mutate(
    tier = case_when(
      time < 23 ~ "A",
      time < 27 ~ "B",
      time < 30 ~ "C",
      time < 33 ~ "D",
      .default = "unknown"
    )
  )
#> # A tibble: 100 × 3
#>       id  time tier   
#>    <int> <dbl> <chr>  
#>  1     1  26.9 B      
#>  2     2  27.7 C      
#>  3     3  23.0 A      
#>  4     4  28.8 C      
#>  5     5  23.2 B      
#>  6     6  33.6 unknown
#>  7     7  22.0 A      
#>  8     8  25.0 B      
#>  9     9  23.8 B      
#> 10    10  24.0 B      
#> # ℹ 90 more rows
```
…
We could add this information in a few ways. With
[`case_when()`](https://dplyr.tidyverse.org/dev/reference/case-and-replace-when.md):

``` r
racers |>
  mutate(
    time = case_when(
      id %in% id_banned_shoes ~ NA,
      id %in% id_false_start ~ time + 1 / 3,
      .default = time
    )
  )
#> # A tibble: 100 × 2
#>       id  time
#>    <int> <dbl>
#>  1     1  27.2
#>  2     2  NA  
#>  3     3  23.0
#>  4     4  28.8
#>  5     5  23.6
#>  6     6  33.6
#>  7     7  22.0
#>  8     8  25.0
#>  9     9  23.8
#> 10    10  NA  
#> # ℹ 90 more rows
```

Or in two steps with
[`if_else()`](https://dplyr.tidyverse.org/dev/reference/if_else.md):

``` r
racers |>
  mutate(time = if_else(id %in% id_banned_shoes, NA, time)) |>
  mutate(time = if_else(id %in% id_false_start, time + 1 / 3, time))
#> # A tibble: 100 × 2
#>       id  time
#>    <int> <dbl>
#>  1     1  27.2
#>  2     2  NA  
#>  3     3  23.0
#>  4     4  28.8
#>  5     5  23.6
#>  6     6  33.6
#>  7     7  22.0
#>  8     8  25.0
#>  9     9  23.8
#> 10    10  NA  
#> # ℹ 90 more rows
```
…
[`replace_when()`](https://dplyr.tidyverse.org/dev/reference/case-and-replace-when.md)
lets you pull the primary input to the front (which also makes it
compatible with the pipe!), making the intent more clear:

``` r
racers |>
  mutate(
    time = time |>
      replace_when(
        id %in% id_banned_shoes ~ NA,
        id %in% id_false_start ~ time + 1 / 3
      )
  )
#> # A tibble: 100 × 2
#>       id  time
#>    <int> <dbl>
#>  1     1  27.2
#>  2     2  NA  
#>  3     3  23.0
#>  4     4  28.8
#>  5     5  23.6
#>  6     6  33.6
#>  7     7  22.0
#>  8     8  25.0
#>  9     9  23.8
#> 10    10  NA  
#> # ℹ 90 more rows
```
…
This actually doesn’t work! Replacing with `NA` does work, but
[`replace()`](https://rdrr.io/r/base/replace.html) requires that the
result of `time + 1 / 3` must be preemptively subset to the places where
the condition is true. You’d have to do something more complicated to
mimic
[`replace_when()`](https://dplyr.tidyverse.org/dev/reference/case-and-replace-when.md):

``` r
racers |>
  mutate(time = base::replace(time, id %in% id_banned_shoes, NA)) |>
  mutate(time = {
    loc <- id %in% id_false_start
    base::replace(time, loc, time[loc] + 1 / 3)
  })
#> # A tibble: 100 × 2
#>       id  time
#>    <int> <dbl>
#>  1     1  27.2
#>  2     2  NA  
#>  3     3  23.0
#>  4     4  28.8
#>  5     5  23.6
#>  6     6  33.6
#>  7     7  22.0
#>  8     8  25.0
#>  9     9  23.8
#> 10    10  NA  
#> # ℹ 90 more rows
```
…
tiers <- racers |>
  mutate(
    tier = case_when(
      time < 23 ~ "A",
      time < 27 ~ "B",
      time < 30 ~ "C",
      time < 33 ~ "D",
      .default = "unknown"
    ) |>
      factor(levels = c("A", "B", "C", "D", "unknown"))
  )

tiers
#> # A tibble: 100 × 3
#>       id  time tier   
#>    <int> <dbl> <fct>  
#>  1     1  26.9 B      
#>  2     2  27.7 C      
#>  3     3  23.0 A      
#>  4     4  28.8 C      
#>  5     5  23.2 B      
#>  6     6  33.6 unknown
#>  7     7  22.0 A      
#>  8     8  25.0 B      
#>  9     9  23.8 B      
#> 10    10  24.0 B      
#> # ℹ 90 more rows
```

Note that the following
[`case_when()`](https://dplyr.tidyverse.org/dev/reference/case-and-replace-when.md)
solution results in `tier` becoming a *character* column, losing its
factor class. This is due to the fact that
[`case_when()`](https://dplyr.tidyverse.org/dev/reference/case-and-replace-when.md)
is a *recoding* function, it creates an entirely new column and doesn’t
know that you’re trying to retain existing type information.

``` r
tiers |>
  mutate(
    tier = case_when(id %in% id_with_malfunction ~ "unknown", .default = tier)
  )
#> # A tibble: 100 × 3
#>       id  time tier   
#>    <int> <dbl> <chr>  
#>  1     1  26.9 unknown
#>  2     2  27.7 C      
#>  3     3  23.0 A      
#>  4     4  28.8 C      
#>  5     5  23.2 unknown
#>  6     6  33.6 unknown
#>  7     7  22.0 A      
#>  8     8  25.0 B      
#>  9     9  23.8 B      
#> 10    10  24.0 B      
#> # ℹ 90 more rows
```

As a *replacing* function,
[`replace_when()`](https://dplyr.tidyverse.org/dev/reference/case-and-replace-when.md)
knows to be type stable on `tier`, and casts `"unknown"` to `tier`’s
factor type before performing the replacement:

``` r
tiers |>
  mutate(
    tier = tier |> replace_when(id %in% id_with_malfunction ~ "unknown")
  )
#> # A tibble: 100 × 3
#>       id  time tier   
#>    <int> <dbl> <fct>  
#>  1     1  26.9 unknown
#>  2     2  27.7 C      
#>  3     3  23.0 A      
#>  4     4  28.8 C      
#>  5     5  23.2 unknown
#>  6     6  33.6 unknown
#>  7     7  22.0 A      
#>  8     8  25.0 B      
#>  9     9  23.8 B      
#> 10    10  24.0 B      
#> # ℹ 90 more rows
```
…
