Two-table verbs • dplyr
…
Mutating joins allow you to combine variables from multiple tables.
For example, consider the flights and airlines data from the
nycflights13 package. In one table we have flight information with an
abbreviation for carrier, and in another we have a mapping between
abbreviations and full names. You can use a join to add the carrier
names to the flight data:

library(nycflights13)
# Drop unimportant variables so it's easier to understand the join results.
flights2 <- flights %>% select(year:day, hour, origin, dest, tailnum, carrier)

flights2 %>% 
  left_join(airlines)
#> Joining with `by = join_by(carrier)`
#> # A tibble: 336,776 × 9
#>    year month   day  hour origin dest  tailnum carrier name               
#>   <int> <int> <int> <dbl> <chr>  <chr> <chr>   <chr>   <chr>              
#> 1  2013     1     1     5 EWR    IAH   N14228  UA      United Air Lines I…
#> 2  2013     1     1     5 LGA    IAH   N24211  UA      United Air Lines I…
#> 3  2013     1     1     5 JFK    MIA   N619AA  AA      American Airlines …
#> 4  2013     1     1     5 JFK    BQN   N804JB  B6      JetBlue Airways    
#> 5  2013     1     1     6 LGA    ATL   N668DN  DL      Delta Air Lines In…
#> # ℹ 336,771 more rows
Controlling how the tables are matched

As well as x and y, each mutating join
takes an argument by that controls which variables are used
to match observations in the two tables. There are a few ways to specify
it, as I illustrate below with various tables from nycflights13:

NULL, the default. dplyr will will use all variables
that appear in both tables, a natural join. For
example, the flights and weather tables match on their common variables:
year, month, day, hour and origin.

flights2 %>% left_join(weather)
#> Joining with `by = join_by(year, month, day, hour, origin)`
#> # A tibble: 336,776 × 18
#>    year month   day  hour origin dest  tailnum carrier  temp  dewp humid
#>   <int> <int> <int> <dbl> <chr>  <chr> <chr>   <chr>   <dbl> <dbl> <dbl>
#> 1  2013     1     1     5 EWR    IAH   N14228  UA       39.0  28.0  64.4
#> 2  2013     1     1     5 LGA    IAH   N24211  UA       39.9  25.0  54.8
#> 3  2013     1     1     5 JFK    MIA   N619AA  AA       39.0  27.0  61.6
#> 4  2013     1     1     5 JFK    BQN   N804JB  B6       39.0  27.0  61.6
#> 5  2013     1     1     6 LGA    ATL   N668DN  DL       39.9  25.0  54.8
#> # ℹ 336,771 more rows
#> # ℹ 7 more variables: wind_dir <dbl>, wind_speed <dbl>, wind_gust <dbl>,
#> #   precip <dbl>, pressure <dbl>, visib <dbl>, time_hour <dttm>

A character vector, by = "x". Like a natural join,
but uses only some of the common variables. For example,
flights and planes have year
columns, but they mean different things so we only want to join by
tailnum.

flights2 %>% left_join(planes, by = "tailnum")
#> # A tibble: 336,776 × 16
#>   year.x month   day  hour origin dest  tailnum carrier year.y type       
#>    <int> <int> <int> <dbl> <chr>  <chr> <chr>   <chr>    <int> <chr>      
#> 1   2013     1     1     5 EWR    IAH   N14228  UA        1999 Fixed wing…
#> 2   2013     1     1     5 LGA    IAH   N24211  UA        1998 Fixed wing…
#> 3   2013     1     1     5 JFK    MIA   N619AA  AA        1990 Fixed wing…
#> 4   2013     1     1     5 JFK    BQN   N804JB  B6        2012 Fixed wing…
#> 5   2013     1     1     6 LGA    ATL   N668DN  DL        1991 Fixed wing…
#> # ℹ 336,771 more rows
#> # ℹ 6 more variables: manufacturer <chr>, model <chr>, engines <int>,
#> #   seats <int>, speed <int>, engine <chr>

Note that the year columns in the output are disambiguated with a
suffix.

A named character vector: by = c("x" = "a"). This
will match variable x in table x to variable
a in table y. The variables from use will be
used in the output.

Each flight has an origin and destination airport, so we
need to specify which one we want to join to:

flights2 %>% left_join(airports, c("dest" = "faa"))
#> # A tibble: 336,776 × 15
#>    year month   day  hour origin dest  tailnum carrier name      lat   lon
#>   <int> <int> <int> <dbl> <chr>  <chr> <chr>   <chr>   <chr>   <dbl> <dbl>
#> 1  2013     1     1     5 EWR    IAH   N14228  UA      George…  30.0 -95.3
#> 2  2013     1     1     5 LGA    IAH   N24211  UA      George…  30.0 -95.3
#> 3  2013     1     1     5 JFK    MIA   N619AA  AA      Miami …  25.8 -80.3
#> 4  2013     1     1     5 JFK    BQN   N804JB  B6      NA       NA    NA  
#> 5  2013     1     1     6 LGA    ATL   N668DN  DL      Hartsf…  33.6 -84.4
#> # ℹ 336,771 more rows
#> # ℹ 4 more variables: alt <dbl>, tz <dbl>, dst <chr>, tzone <chr>
flights2 %>% left_join(airports, c("origin" = "faa"))
#> # A tibble: 336,776 × 15
#>    year month   day  hour origin dest  tailnum carrier name      lat   lon
#>   <int> <int> <int> <dbl> <chr>  <chr> <chr>   <chr>   <chr>   <dbl> <dbl>
#> 1  2013     1     1     5 EWR    IAH   N14228  UA      Newark…  40.7 -74.2
#> 2  2013     1     1     5 LGA    IAH   N24211  UA      La Gua…  40.8 -73.9
#> 3  2013     1     1     5 JFK    MIA   N619AA  AA      John F…  40.6 -73.8
#> 4  2013     1     1     5 JFK    BQN   N804JB  B6      John F…  40.6 -73.8
#> 5  2013     1     1     6 LGA    ATL   N668DN  DL      La Gua…  40.8 -73.9
#> # ℹ 336,771 more rows
#> # ℹ 4 more variables: alt <dbl>, tz <dbl>, dst <chr>, tzone <chr>
…
semi_join(x, y) keeps all observations
in x that have a match in y.

anti_join(x, y) drops all observations
in x that have a match in y.

These are most useful for diagnosing join mismatches. For example,
there are many flights in the nycflights13 dataset that don’t have a
matching tail number in the planes table:

library("nycflights13")
flights %>% 
  anti_join(planes, by = "tailnum") %>% 
  count(tailnum, sort = TRUE)
#> # A tibble: 722 × 2
#>   tailnum     n
#>   <chr>   <int>
#> 1 NA       2512
#> 2 N725MQ    575
#> 3 N722MQ    513
#> 4 N723MQ    507
#> 5 N713MQ    483
#> # ℹ 717 more rows
…
