…
[`c_across()`](https://dplyr.tidyverse.org/reference/c_across.md) for a
function that returns a vector

## Examples

``` r
# For better printing
iris <- as_tibble(iris)

# across() -----------------------------------------------------------------
# Using everything() to apply the same function to all columns
iris |>
  mutate(across(everything(), as.character))
#> # A tibble: 150 × 5
#>    Sepal.Length Sepal.Width Petal.Length Petal.Width Species
#>    <chr>        <chr>       <chr>        <chr>       <chr>  
#>  1 5.1          3.5         1.4          0.2         setosa 
#>  2 4.9          3           1.4          0.2         setosa 
#>  3 4.7          3.2         1.3          0.2         setosa 
#>  4 4.6          3.1         1.5          0.2         setosa 
#>  5 5            3.6         1.4          0.2         setosa 
#>  6 5.4          3.9         1.7          0.4         setosa 
#>  7 4.6          3.4         1.4          0.3         setosa 
#>  8 5            3.4         1.5          0.2         setosa 
#>  9 4.4          2.9         1.4          0.2         setosa 
#> 10 4.9          3.1         1.5          0.1         setosa 
#> # ℹ 140 more rows

# Different ways to select the same set of columns
# See <https://tidyselect.r-lib.org/articles/syntax.html> for details
iris |>
  mutate(across(c(Sepal.Length, Sepal.Width), round))
#> # A tibble: 150 × 5
#>    Sepal.Length Sepal.Width Petal.Length Petal.Width Species
#>           <dbl>       <dbl>        <dbl>       <dbl> <fct>  
#>  1            5           4          1.4         0.2 setosa 
#>  2            5           3          1.4         0.2 setosa 
#>  3            5           3          1.3         0.2 setosa 
#>  4            5           3          1.5         0.2 setosa 
#>  5            5           4          1.4         0.2 setosa 
#>  6            5           4          1.7         0.4 setosa 
#>  7            5           3          1.4         0.3 setosa 
#>  8            5           3          1.5         0.2 setosa 
#>  9            4           3          1.4         0.2 setosa 
#> 10            5           3          1.5         0.1 setosa 
#> # ℹ 140 more rows
iris |>
  mutate(across(c(1, 2), round))
#> # A tibble: 150 × 5
#>    Sepal.Length Sepal.Width Petal.Length Petal.Width Species
#>           <dbl>       <dbl>        <dbl>       <dbl> <fct>  
#>  1            5           4          1.4         0.2 setosa 
#>  2            5           3          1.4         0.2 setosa 
#>  3            5           3          1.3         0.2 setosa 
#>  4            5           3          1.5         0.2 setosa 
#>  5            5           4          1.4         0.2 setosa 
#>  6            5           4          1.7         0.4 setosa 
#>  7            5           3          1.4         0.3 setosa 
#>  8            5           3          1.5         0.2 setosa 
#>  9            4           3          1.4         0.2 setosa 
#> 10            5           3          1.5         0.1 setosa 
#> # ℹ 140 more rows
iris |>
  mutate(across(1:Sepal.Width, round))
#> # A tibble: 150 × 5
#>    Sepal.Length Sepal.Width Petal.Length Petal.Width Species
#>           <dbl>       <dbl>        <dbl>       <dbl> <fct>  
#>  1            5           4          1.4         0.2 setosa 
#>  2            5           3          1.4         0.2 setosa 
#>  3            5           3          1.3         0.2 setosa 
#>  4            5           3          1.5         0.2 setosa 
#>  5            5           4          1.4         0.2 setosa 
#>  6            5           4          1.7         0.4 setosa 
#>  7            5           3          1.4         0.3 setosa 
#>  8            5           3          1.5         0.2 setosa 
#>  9            4           3          1.4         0.2 setosa 
#> 10            5           3          1.5         0.1 setosa 
#> # ℹ 140 more rows
iris |>
  mutate(across(where(is.double) & !c(Petal.Length, Petal.Width), round))
#> # A tibble: 150 × 5
#>    Sepal.Length Sepal.Width Petal.Length Petal.Width Species
#>           <dbl>       <dbl>        <dbl>       <dbl> <fct>  
#>  1            5           4          1.4         0.2 setosa 
#>  2            5           3          1.4         0.2 setosa 
#>  3            5           3          1.3         0.2 setosa 
#>  4            5           3          1.5         0.2 setosa 
#>  5            5           4          1.4         0.2 setosa 
#>  6            5           4          1.7         0.4 setosa 
#>  7            5           3          1.4         0.3 setosa 
#>  8            5           3          1.5         0.2 setosa 
#>  9            4           3          1.4         0.2 setosa 
#> 10            5           3          1.5         0.1 setosa 
#> # ℹ 140 more rows

# Using an external vector of names
cols <- c("Sepal.Length", "Petal.Width")
iris |>
  mutate(across(all_of(cols), round))
#> # A tibble: 150 × 5
#>    Sepal.Length Sepal.Width Petal.Length Petal.Width Species
#>           <dbl>       <dbl>        <dbl>       <dbl> <fct>  
#>  1            5         3.5          1.4           0 setosa 
#>  2            5         3            1.4           0 setosa 
#>  3            5         3.2          1.3           0 setosa 
#>  4            5         3.1          1.5           0 setosa 
#>  5            5         3.6          1.4           0 setosa 
#>  6            5         3.9          1.7           0 setosa 
#>  7            5         3.4          1.4           0 setosa 
#>  8            5         3.4          1.5           0 setosa 
#>  9            4         2.9          1.4           0 setosa 
#> 10            5         3.1          1.5           0 setosa 
#> # ℹ 140 more rows

# If the external vector is named, the output columns will be named according
# to those names
names(cols) <- tolower(cols)
iris |>
  mutate(across(all_of(cols), round))
#> # A tibble: 150 × 7
#>    Sepal.Length Sepal.Width Petal.Length Petal.Width Species
#>           <dbl>       <dbl>        <dbl>       <dbl> <fct>  
#>  1          5.1         3.5          1.4         0.2 setosa 
#>  2          4.9         3            1.4         0.2 setosa 
#>  3          4.7         3.2          1.3         0.2 setosa 
#>  4          4.6         3.1          1.5         0.2 setosa 
#>  5          5           3.6          1.4         0.2 setosa 
#>  6          5.4         3.9          1.7         0.4 setosa 
#>  7          4.6         3.4          1.4         0.3 setosa 
#>  8          5           3.4          1.5         0.2 setosa 
#>  9          4.4         2.9          1.4         0.2 setosa 
#> 10          4.9         3.1          1.5         0.1 setosa 
#> # ℹ 140 more rows
#> # ℹ 2 more variables: sepal.length <dbl>, petal.width <dbl>
…
# This is also useful inside mutate(), for example, with a multi-lag helper
multilag <- function(x, lags = 1:3) {
  names(lags) <- as.character(lags)
  purrr::map_dfr(lags, lag, x = x)
}

iris |>
  group_by(Species) |>
  mutate(across(starts_with("Sepal"), multilag, .unpack = TRUE)) |>
  select(Species, starts_with("Sepal"))
#> # A tibble: 150 × 9
#> # Groups:   Species [3]
#>    Species Sepal.Length Sepal.Width Sepal.Length_1 Sepal.Length_2
#>    <fct>          <dbl>       <dbl>          <dbl>          <dbl>
#>  1 setosa           5.1         3.5           NA             NA  
#>  2 setosa           4.9         3              5.1           NA  
#>  3 setosa           4.7         3.2            4.9            5.1
#>  4 setosa           4.6         3.1            4.7            4.9
#>  5 setosa           5           3.6            4.6            4.7
#>  6 setosa           5.4         3.9            5              4.6
#>  7 setosa           4.6         3.4            5.4            5  
#>  8 setosa           5           3.4            4.6            5.4
#>  9 setosa           4.4         2.9            5              4.6
#> 10 setosa           4.9         3.1            4.4            5  
#> # ℹ 140 more rows
#> # ℹ 4 more variables: Sepal.Length_3 <dbl>, Sepal.Width_1 <dbl>,
#> #   Sepal.Width_2 <dbl>, Sepal.Width_3 <dbl>

# if_any() and if_all() ----------------------------------------------------
iris |>
  filter(if_any(ends_with("Width"), ~ . > 4))
#> # A tibble: 3 × 5
#>   Sepal.Length Sepal.Width Petal.Length Petal.Width Species
#>          <dbl>       <dbl>        <dbl>       <dbl> <fct>  
#> 1          5.7         4.4          1.5         0.4 setosa 
#> 2          5.2         4.1          1.5         0.1 setosa 
#> 3          5.5         4.2          1.4         0.2 setosa 
iris |>
  filter_out(if_any(ends_with("Width"), ~ . > 4))
#> # A tibble: 147 × 5
#>    Sepal.Length Sepal.Width Petal.Length Petal.Width Species
#>           <dbl>       <dbl>        <dbl>       <dbl> <fct>  
#>  1          5.1         3.5          1.4         0.2 setosa 
#>  2          4.9         3            1.4         0.2 setosa 
#>  3          4.7         3.2          1.3         0.2 setosa 
#>  4          4.6         3.1          1.5         0.2 setosa 
#>  5          5           3.6          1.4         0.2 setosa 
#>  6          5.4         3.9          1.7         0.4 setosa 
#>  7          4.6         3.4          1.4         0.3 setosa 
#>  8          5           3.4          1.5         0.2 setosa 
#>  9          4.4         2.9          1.4         0.2 setosa 
#> 10          4.9         3.1          1.5         0.1 setosa 
#> # ℹ 137 more rows

iris |>
  filter(if_all(ends_with("Width"), ~ . > 2))
#> # A tibble: 23 × 5
#>    Sepal.Length Sepal.Width Petal.Length Petal.Width Species  
#>           <dbl>       <dbl>        <dbl>       <dbl> <fct>    
#>  1          6.3         3.3          6           2.5 virginica
#>  2          7.1         3            5.9         2.1 virginica
#>  3          6.5         3            5.8         2.2 virginica
#>  4          7.6         3            6.6         2.1 virginica
#>  5          7.2         3.6          6.1         2.5 virginica
#>  6          6.8         3            5.5         2.1 virginica
#>  7          5.8         2.8          5.1         2.4 virginica
#>  8          6.4         3.2          5.3         2.3 virginica
#>  9          7.7         3.8          6.7         2.2 virginica
#> 10          7.7         2.6          6.9         2.3 virginica
#> # ℹ 13 more rows
iris |>
  filter_out(if_all(ends_with("Width"), ~ . > 2))
#> # A tibble: 127 × 5
#>    Sepal.Length Sepal.Width Petal.Length Petal.Width Species
#>           <dbl>       <dbl>        <dbl>       <dbl> <fct>  
#>  1          5.1         3.5          1.4         0.2 setosa 
#>  2          4.9         3            1.4         0.2 setosa 
#>  3          4.7         3.2          1.3         0.2 setosa 
#>  4          4.6         3.1          1.5         0.2 setosa 
#>  5          5           3.6          1.4         0.2 setosa 
#>  6          5.4         3.9          1.7         0.4 setosa 
#>  7          4.6         3.4          1.4         0.3 setosa 
#>  8          5           3.4          1.5         0.2 setosa 
#>  9          4.4         2.9          1.4         0.2 setosa 
#> 10          4.9         3.1          1.5         0.1 setosa 
#> # ℹ 117 more rows
```
