A general vectorised switch() — case_match • dplyr
…
starwars %>%
  mutate(
    # Replace missings, but leave everything else alone
    hair_color = case_match(hair_color, NA ~ "unknown", .default = hair_color),
    # Replace some, but not all, of the species
    species = case_match(
      species,
      "Human" ~ "Humanoid",
      "Droid" ~ "Robot",
      c("Wookiee", "Ewok") ~ "Hairy",
      .default = species
    ),
    .keep = "used"
  )
#> # A tibble: 87 × 2
#>    hair_color    species 
#>    <chr>         <chr>   
#>  1 blond         Humanoid
#>  2 unknown       Robot   
#>  3 unknown       Robot   
#>  4 none          Humanoid
#>  5 brown         Humanoid
#>  6 brown, grey   Humanoid
#>  7 brown         Humanoid
#>  8 unknown       Robot   
#>  9 black         Humanoid
#> 10 auburn, white Humanoid
#> # ℹ 77 more rows
…
