A general vectorised if-else — case-and-replace-when • dplyr
…
# These functions are particularly useful inside `mutate()` when you want to
# create a new variable that relies on a complex combination of existing
# variables
starwars |>
  select(name:mass, gender, species) |>
  mutate(
    type = case_when(
      height > 200 | mass > 200 ~ "large",
      species == "Droid" ~ "robot",
      .default = "other"
    )
  )
#> # A tibble: 87 × 6
#>    name               height  mass gender    species type 
#>    <chr>               <int> <dbl> <chr>     <chr>   <chr>
#>  1 Luke Skywalker        172    77 masculine Human   other
#>  2 C-3PO                 167    75 masculine Droid   robot
#>  3 R2-D2                  96    32 masculine Droid   robot
#>  4 Darth Vader           202   136 masculine Human   large
#>  5 Leia Organa           150    49 feminine  Human   other
#>  6 Owen Lars             178   120 masculine Human   other
#>  7 Beru Whitesun Lars    165    75 feminine  Human   other
#>  8 R5-D4                  97    32 masculine Droid   robot
#>  9 Biggs Darklighter     183    84 masculine Human   other
#> 10 Obi-Wan Kenobi        182    77 masculine Human   other
#> # ℹ 77 more rows
…
# `replace_when()` can also be used in combination with `pick()` to
# conditionally mutate rows within multiple columns using a single condition.
# Here `replace_when()` returns a data frame with new `species` and `name`
# columns, which `mutate()` then automatically unpacks.
starwars |>
  select(homeworld, species, name) |>
  mutate(replace_when(
    pick(species, name),
    homeworld == "Tatooine" ~ tibble(
      species = "Tatooinese",
      name = paste(name, "(Tatooine)")
    )
  ))
#> # A tibble: 87 × 3
#>    homeworld species    name                         
#>    <chr>     <chr>      <chr>                        
#>  1 Tatooine  Tatooinese Luke Skywalker (Tatooine)    
#>  2 Tatooine  Tatooinese C-3PO (Tatooine)             
#>  3 Naboo     Droid      R2-D2                        
#>  4 Tatooine  Tatooinese Darth Vader (Tatooine)       
#>  5 Alderaan  Human      Leia Organa                  
#>  6 Tatooine  Tatooinese Owen Lars (Tatooine)         
#>  7 Tatooine  Tatooinese Beru Whitesun Lars (Tatooine)
#>  8 Tatooine  Tatooinese R5-D4 (Tatooine)             
#>  9 Tatooine  Tatooinese Biggs Darklighter (Tatooine) 
#> 10 Stewjon   Human      Obi-Wan Kenobi               
#> # ℹ 77 more rows
…
