…
Other single table verbs:
[`arrange()`](https://dplyr.tidyverse.org/reference/arrange.md),
[`mutate()`](https://dplyr.tidyverse.org/reference/mutate.md),
[`reframe()`](https://dplyr.tidyverse.org/reference/reframe.md),
[`rename()`](https://dplyr.tidyverse.org/reference/rename.md),
[`select()`](https://dplyr.tidyverse.org/reference/select.md),
[`slice()`](https://dplyr.tidyverse.org/reference/slice.md),
[`summarise()`](https://dplyr.tidyverse.org/reference/summarise.md)

## Examples

``` r
# Filtering for one criterion
filter(starwars, species == "Human")
#> # A tibble: 35 × 14
#>    name   height  mass hair_color skin_color eye_color birth_year sex  
#>    <chr>   <int> <dbl> <chr>      <chr>      <chr>          <dbl> <chr>
#>  1 Luke …    172    77 blond      fair       blue            19   male 
#>  2 Darth…    202   136 none       white      yellow          41.9 male 
#>  3 Leia …    150    49 brown      light      brown           19   fema…
#>  4 Owen …    178   120 brown, gr… light      blue            52   male 
#>  5 Beru …    165    75 brown      light      blue            47   fema…
#>  6 Biggs…    183    84 black      light      brown           24   male 
#>  7 Obi-W…    182    77 auburn, w… fair       blue-gray       57   male 
#>  8 Anaki…    188    84 blond      fair       blue            41.9 male 
#>  9 Wilhu…    180    NA auburn, g… fair       blue            64   male 
#> 10 Han S…    180    80 brown      fair       brown           29   male 
#> # ℹ 25 more rows
#> # ℹ 6 more variables: gender <chr>, homeworld <chr>, species <chr>,
#> #   films <list>, vehicles <list>, starships <list>
…
#>   name    height  mass hair_color skin_color eye_color birth_year sex  
#>   <chr>    <int> <dbl> <chr>      <chr>      <chr>          <dbl> <chr>
#> 1 Nien N…    160    68 none       grey       black             NA male 
#> 2 Gasgano    122    NA none       white, bl… black             NA male 
#> 3 Kit Fi…    196    87 none       green      black             NA male 
#> 4 Plo Ko…    188    80 none       orange     black             22 male 
#> 5 Lama Su    229    88 none       grey       black             NA male 
#> 6 Taun We    213    NA none       grey       black             NA fema…
#> 7 Shaak …    178    57 none       red, blue… black             NA fema…
#> 8 Tion M…    206    80 none       grey       black             NA male 
#> 9 BB8         NA    NA none       none       black             NA none 
#> # ℹ 6 more variables: gender <chr>, homeworld <chr>, species <chr>,
#> #   films <list>, vehicles <list>, starships <list>
filter(starwars, hair_color == "none" | eye_color == "black")
#> # A tibble: 39 × 14
#>    name   height  mass hair_color skin_color eye_color birth_year sex  
#>    <chr>   <int> <dbl> <chr>      <chr>      <chr>          <dbl> <chr>
#>  1 Darth…    202   136 none       white      yellow          41.9 male 
#>  2 Greedo    173    74 NA         green      black           44   male 
#>  3 IG-88     200   140 none       metal      red             15   none 
#>  4 Bossk     190   113 none       green      red             53   male 
#>  5 Lobot     175    79 none       light      blue            37   male 
#>  6 Ackbar    180    83 none       brown mot… orange          41   male 
#>  7 Nien …    160    68 none       grey       black           NA   male 
#>  8 Nute …    191    90 none       mottled g… red             NA   male 
#>  9 Jar J…    196    66 none       orange     orange          52   male 
#> 10 Roos …    224    82 none       grey       orange          NA   male 
#> # ℹ 29 more rows
#> # ℹ 6 more variables: gender <chr>, homeworld <chr>, species <chr>,
#> #   films <list>, vehicles <list>, starships <list>
…
# To combine comma separated expressions using `|` instead, use `when_any()`
starwars |> filter(when_any(hair_color == "none", eye_color == "black"))
#> # A tibble: 39 × 14
#>    name   height  mass hair_color skin_color eye_color birth_year sex  
#>    <chr>   <int> <dbl> <chr>      <chr>      <chr>          <dbl> <chr>
#>  1 Darth…    202   136 none       white      yellow          41.9 male 
#>  2 Greedo    173    74 NA         green      black           44   male 
#>  3 IG-88     200   140 none       metal      red             15   none 
#>  4 Bossk     190   113 none       green      red             53   male 
#>  5 Lobot     175    79 none       light      blue            37   male 
#>  6 Ackbar    180    83 none       brown mot… orange          41   male 
#>  7 Nien …    160    68 none       grey       black           NA   male 
#>  8 Nute …    191    90 none       mottled g… red             NA   male 
#>  9 Jar J…    196    66 none       orange     orange          52   male 
#> 10 Roos …    224    82 none       grey       orange          NA   male 
#> # ℹ 29 more rows
#> # ℹ 6 more variables: gender <chr>, homeworld <chr>, species <chr>,
#> #   films <list>, vehicles <list>, starships <list>

# Filtering out to drop rows
filter_out(starwars, hair_color == "none")
#> # A tibble: 49 × 14
#>    name   height  mass hair_color skin_color eye_color birth_year sex  
#>    <chr>   <int> <dbl> <chr>      <chr>      <chr>          <dbl> <chr>
#>  1 Luke …    172    77 blond      fair       blue            19   male 
#>  2 C-3PO     167    75 NA         gold       yellow         112   none 
#>  3 R2-D2      96    32 NA         white, bl… red             33   none 
#>  4 Leia …    150    49 brown      light      brown           19   fema…
#>  5 Owen …    178   120 brown, gr… light      blue            52   male 
#>  6 Beru …    165    75 brown      light      blue            47   fema…
#>  7 R5-D4      97    32 NA         white, red red             NA   none 
#>  8 Biggs…    183    84 black      light      brown           24   male 
#>  9 Obi-W…    182    77 auburn, w… fair       blue-gray       57   male 
#> 10 Anaki…    188    84 blond      fair       blue            41.9 male 
#> # ℹ 39 more rows
#> # ℹ 6 more variables: gender <chr>, homeworld <chr>, species <chr>,
#> #   films <list>, vehicles <list>, starships <list>

# When filtering out, it can be useful to first interactively filter for the
# rows you want to drop, just to double check that you've written the
# conditions correctly. Then, just change `filter()` to `filter_out()`.
filter(starwars, mass > 1000, eye_color == "orange")
#> # A tibble: 1 × 14
#>   name    height  mass hair_color skin_color eye_color birth_year sex  
#>   <chr>    <int> <dbl> <chr>      <chr>      <chr>          <dbl> <chr>
#> 1 Jabba …    175  1358 NA         green-tan… orange           600 herm…
#> # ℹ 6 more variables: gender <chr>, homeworld <chr>, species <chr>,
#> #   films <list>, vehicles <list>, starships <list>
filter_out(starwars, mass > 1000, eye_color == "orange")
#> # A tibble: 86 × 14
#>    name   height  mass hair_color skin_color eye_color birth_year sex  
#>    <chr>   <int> <dbl> <chr>      <chr>      <chr>          <dbl> <chr>
#>  1 Luke …    172    77 blond      fair       blue            19   male 
#>  2 C-3PO     167    75 NA         gold       yellow         112   none 
#>  3 R2-D2      96    32 NA         white, bl… red             33   none 
#>  4 Darth…    202   136 none       white      yellow          41.9 male 
#>  5 Leia …    150    49 brown      light      brown           19   fema…
#>  6 Owen …    178   120 brown, gr… light      blue            52   male 
#>  7 Beru …    165    75 brown      light      blue            47   fema…
#>  8 R5-D4      97    32 NA         white, red red             NA   none 
#>  9 Biggs…    183    84 black      light      brown           24   male 
#> 10 Obi-W…    182    77 auburn, w… fair       blue-gray       57   male 
#> # ℹ 76 more rows
#> # ℹ 6 more variables: gender <chr>, homeworld <chr>, species <chr>,
#> #   films <list>, vehicles <list>, starships <list>
…
# If you find yourself trying to use a `filter()` to drop rows, then
# you should consider if switching to `filter_out()` can simplify your
# conditions. For example, to drop blond individuals, you might try:
starwars |> filter(hair_color != "blond")
#> # A tibble: 79 × 14
#>    name   height  mass hair_color skin_color eye_color birth_year sex  
#>    <chr>   <int> <dbl> <chr>      <chr>      <chr>          <dbl> <chr>
#>  1 Darth…    202   136 none       white      yellow          41.9 male 
#>  2 Leia …    150    49 brown      light      brown           19   fema…
#>  3 Owen …    178   120 brown, gr… light      blue            52   male 
#>  4 Beru …    165    75 brown      light      blue            47   fema…
#>  5 Biggs…    183    84 black      light      brown           24   male 
#>  6 Obi-W…    182    77 auburn, w… fair       blue-gray       57   male 
#>  7 Wilhu…    180    NA auburn, g… fair       blue            64   male 
#>  8 Chewb…    228   112 brown      unknown    blue           200   male 
#>  9 Han S…    180    80 brown      fair       brown           29   male 
#> 10 Wedge…    170    77 brown      fair       hazel           21   male 
#> # ℹ 69 more rows
#> # ℹ 6 more variables: gender <chr>, homeworld <chr>, species <chr>,
#> #   films <list>, vehicles <list>, starships <list>

# But this also drops rows with an `NA` hair color! To retain those:
starwars |> filter(hair_color != "blond" | is.na(hair_color))
#> # A tibble: 84 × 14
#>    name   height  mass hair_color skin_color eye_color birth_year sex  
#>    <chr>   <int> <dbl> <chr>      <chr>      <chr>          <dbl> <chr>
#>  1 C-3PO     167    75 NA         gold       yellow         112   none 
#>  2 R2-D2      96    32 NA         white, bl… red             33   none 
#>  3 Darth…    202   136 none       white      yellow          41.9 male 
#>  4 Leia …    150    49 brown      light      brown           19   fema…
#>  5 Owen …    178   120 brown, gr… light      blue            52   male 
#>  6 Beru …    165    75 brown      light      blue            47   fema…
#>  7 R5-D4      97    32 NA         white, red red             NA   none 
#>  8 Biggs…    183    84 black      light      brown           24   male 
#>  9 Obi-W…    182    77 auburn, w… fair       blue-gray       57   male 
#> 10 Wilhu…    180    NA auburn, g… fair       blue            64   male 
#> # ℹ 74 more rows
#> # ℹ 6 more variables: gender <chr>, homeworld <chr>, species <chr>,
#> #   films <list>, vehicles <list>, starships <list>

# But explicit `NA` handling like this can quickly get unwieldy, especially
# with multiple conditions. Since your intent was to specify rows to drop
# rather than rows to keep, use `filter_out()`. This also removes the need
# for any explicit `NA` handling.
starwars |> filter_out(hair_color == "blond")
#> # A tibble: 84 × 14
#>    name   height  mass hair_color skin_color eye_color birth_year sex  
#>    <chr>   <int> <dbl> <chr>      <chr>      <chr>          <dbl> <chr>
#>  1 C-3PO     167    75 NA         gold       yellow         112   none 
#>  2 R2-D2      96    32 NA         white, bl… red             33   none 
#>  3 Darth…    202   136 none       white      yellow          41.9 male 
#>  4 Leia …    150    49 brown      light      brown           19   fema…
#>  5 Owen …    178   120 brown, gr… light      blue            52   male 
#>  6 Beru …    165    75 brown      light      blue            47   fema…
#>  7 R5-D4      97    32 NA         white, red red             NA   none 
#>  8 Biggs…    183    84 black      light      brown           24   male 
#>  9 Obi-W…    182    77 auburn, w… fair       blue-gray       57   male 
#> 10 Wilhu…    180    NA auburn, g… fair       blue            64   male 
#> # ℹ 74 more rows
#> # ℹ 6 more variables: gender <chr>, homeworld <chr>, species <chr>,
#> #   films <list>, vehicles <list>, starships <list>

# To refer to column names that are stored as strings, use the `.data`
# pronoun:
vars <- c("mass", "height")
cond <- c(80, 150)
starwars |>
  filter(
    .data[[vars[[1]]]] > cond[[1]],
    .data[[vars[[2]]]] > cond[[2]]
  )
#> # A tibble: 21 × 14
#>    name   height  mass hair_color skin_color eye_color birth_year sex  
#>    <chr>   <int> <dbl> <chr>      <chr>      <chr>          <dbl> <chr>
#>  1 Darth…    202   136 none       white      yellow          41.9 male 
#>  2 Owen …    178   120 brown, gr… light      blue            52   male 
#>  3 Biggs…    183    84 black      light      brown           24   male 
#>  4 Anaki…    188    84 blond      fair       blue            41.9 male 
#>  5 Chewb…    228   112 brown      unknown    blue           200   male 
#>  6 Jabba…    175  1358 NA         green-tan… orange         600   herm…
#>  7 Jek T…    180   110 brown      fair       blue            NA   NA   
#>  8 IG-88     200   140 none       metal      red             15   none 
#>  9 Bossk     190   113 none       green      red             53   male 
#> 10 Ackbar    180    83 none       brown mot… orange          41   male 
#> # ℹ 11 more rows
#> # ℹ 6 more variables: gender <chr>, homeworld <chr>, species <chr>,
#> #   films <list>, vehicles <list>, starships <list>
…
