…
Other grouping functions:
[`group_by()`](https://dplyr.tidyverse.org/reference/group_by.md),
[`group_map()`](https://dplyr.tidyverse.org/reference/group_map.md),
[`group_nest()`](https://dplyr.tidyverse.org/reference/group_nest.md),
[`group_split()`](https://dplyr.tidyverse.org/reference/group_split.md)

## Examples

``` r
iris |>
  group_by(Species) |>
  filter(Species == "setosa", .preserve = TRUE) |>
  group_trim()
#> # A tibble: 50 × 5
#> # Groups:   Species [1]
#>    Sepal.Length Sepal.Width Petal.Length Petal.Width Species
#>           <dbl>       <dbl>        <dbl>       <dbl> <fct>  
#>  1          5.1         3.5          1.4         0.2 setosa 
#>  2          4.9         3            1.4         0.2 setosa 
#>  3          4.7         3.2          1.3         0.2 setosa 
#>  4          4.6         3.1          1.5         0.2 setosa 
#>  5          5           3.6          1.4         0.2 setosa 
#>  6          5.4         3.9          1.7         0.4 setosa 
#>  7          4.6         3.4          1.4         0.3 setosa 
#>  8          5           3.4          1.5         0.2 setosa 
#>  9          4.4         2.9          1.4         0.2 setosa 
#> 10          4.9         3.1          1.5         0.1 setosa 
#> # ℹ 40 more rows
```
