…
#----- use case 2: using group_nest() on a ungrouped data frame with
#                  a grouping specification that uses the data mask
starwars |>
  group_nest(species, homeworld)
#> # A tibble: 57 × 3
#>    species  homeworld                  data
#>    <chr>    <chr>       <list<tibble[,12]>>
#>  1 Aleena   Aleen Minor            [1 × 12]
#>  2 Besalisk Ojom                   [1 × 12]
#>  3 Cerean   Cerea                  [1 × 12]
#>  4 Chagrian Champala               [1 × 12]
#>  5 Clawdite Zolan                  [1 × 12]
#>  6 Droid    Naboo                  [1 × 12]
#>  7 Droid    Tatooine               [2 × 12]
#>  8 Droid    NA                     [3 × 12]
#>  9 Dug      Malastare              [1 × 12]
#> 10 Ewok     Endor                  [1 × 12]
#> # ℹ 47 more rows
```
