dplyr 0.8.0 • dplyr
…
Here we group by the factor f and the numeric vector x. Again we get 3 groups, because for the levels “a” and “b” of f, there is only one value of x. The third group, associated with the level “c” sets the value of x to NA out of thin air. We call this a sentinel NA and we might make it obvious later that this is not the same as if we had a missing value in the data.

df %>% 
  group_by(x, f) %>% 
  tally()
#> # A tibble: 6 x 3
#> # Groups:   x [2]
#>       x f         n
#>   <dbl> <fct> <int>
#> 1     1 a         2
#> 2     1 b         0
#> 3     1 c         0
#> 4     2 a         0
#> # ... with 2 more rows

In this case, we get more groups, and consequently more empty groups, because of the recursive slicing, first we find 2 unique values for the variable x (1 and 2), then we group by the factor f and therefore get 3 groups (because 3 levels) for each unique value of x.

Propagation of the grouping structure

filter() has been reworked to respect the grouping stucture and gains the .preserve argument to control which groups to keep.

When .preserve is set to TRUE (the default) the groups of the filtered tibble are the same as the groups of the original tibble.

df %>% 
  group_by(x, f) %>% 
  filter(x == 1) %>% 
  tally()
#> # A tibble: 6 x 3
#> # Groups:   x [2]
#>       x f         n
#>   <dbl> <fct> <int>
#> 1     1 a         2
#> 2     1 b         0
#> 3     1 c         0
#> 4     2 a         0
#> # ... with 2 more rows
…
