Apply a function (or functions) across multiple columns — across • dplyr
…
    See also

    c_across() for a function that returns a vector

    Examples

# across() -----------------------------------------------------------------
# Different ways to select the same set of columns
# See <https://tidyselect.r-lib.org/articles/syntax.html> for details
iris %>%
  as_tibble() %>%
  mutate(across(c(Sepal.Length, Sepal.Width), round))
#> # A tibble: 150 × 5
#>    Sepal.Length Sepal.Width Petal.Length Petal.Width Species
#>           <dbl>       <dbl>        <dbl>       <dbl> <fct>  
#>  1            5           4          1.4         0.2 setosa 
#>  2            5           3          1.4         0.2 setosa 
#>  3            5           3          1.3         0.2 setosa 
#>  4            5           3          1.5         0.2 setosa 
#>  5            5           4          1.4         0.2 setosa 
#>  6            5           4          1.7         0.4 setosa 
#>  7            5           3          1.4         0.3 setosa 
#>  8            5           3          1.5         0.2 setosa 
#>  9            4           3          1.4         0.2 setosa 
#> 10            5           3          1.5         0.1 setosa 
#> # … with 140 more rows
iris %>%
  as_tibble() %>%
  mutate(across(c(1, 2), round))
#> # A tibble: 150 × 5
#>    Sepal.Length Sepal.Width Petal.Length Petal.Width Species
#>           <dbl>       <dbl>        <dbl>       <dbl> <fct>  
#>  1            5           4          1.4         0.2 setosa 
#>  2            5           3          1.4         0.2 setosa 
#>  3            5           3          1.3         0.2 setosa 
#>  4            5           3          1.5         0.2 setosa 
#>  5            5           4          1.4         0.2 setosa 
#>  6            5           4          1.7         0.4 setosa 
#>  7            5           3          1.4         0.3 setosa 
#>  8            5           3          1.5         0.2 setosa 
#>  9            4           3          1.4         0.2 setosa 
#> 10            5           3          1.5         0.1 setosa 
#> # … with 140 more rows
iris %>%
  as_tibble() %>%
  mutate(across(1:Sepal.Width, round))
#> # A tibble: 150 × 5
#>    Sepal.Length Sepal.Width Petal.Length Petal.Width Species
#>           <dbl>       <dbl>        <dbl>       <dbl> <fct>  
#>  1            5           4          1.4         0.2 setosa 
#>  2            5           3          1.4         0.2 setosa 
#>  3            5           3          1.3         0.2 setosa 
#>  4            5           3          1.5         0.2 setosa 
#>  5            5           4          1.4         0.2 setosa 
#>  6            5           4          1.7         0.4 setosa 
#>  7            5           3          1.4         0.3 setosa 
#>  8            5           3          1.5         0.2 setosa 
#>  9            4           3          1.4         0.2 setosa 
#> 10            5           3          1.5         0.1 setosa 
#> # … with 140 more rows
iris %>%
  as_tibble() %>%
  mutate(across(where(is.double) & !c(Petal.Length, Petal.Width), round))
#> # A tibble: 150 × 5
#>    Sepal.Length Sepal.Width Petal.Length Petal.Width Species
#>           <dbl>       <dbl>        <dbl>       <dbl> <fct>  
#>  1            5           4          1.4         0.2 setosa 
#>  2            5           3          1.4         0.2 setosa 
#>  3            5           3          1.3         0.2 setosa 
#>  4            5           3          1.5         0.2 setosa 
#>  5            5           4          1.4         0.2 setosa 
#>  6            5           4          1.7         0.4 setosa 
#>  7            5           3          1.4         0.3 setosa 
#>  8            5           3          1.5         0.2 setosa 
#>  9            4           3          1.4         0.2 setosa 
#> 10            5           3          1.5         0.1 setosa 
#> # … with 140 more rows
…
