Efficiently bind multiple data frames by row and column — bind • dplyr
…
#> # A tibble: 8 × 14
#>   name       height  mass hair_color skin_color eye_color birth_year sex  
#>   <chr>       <int> <dbl> <chr>      <chr>      <chr>          <dbl> <chr>
#> 1 Luke Skyw…    172    77 blond      fair       blue            19   male 
#> 2 C-3PO         167    75 NA         gold       yellow         112   none 
#> 3 R2-D2          96    32 NA         white, bl… red             33   none 
#> 4 Darth Vad…    202   136 none       white      yellow          41.9 male 
#> 5 Biggs Dar…    183    84 black      light      brown           24   male 
#> 6 Obi-Wan K…    182    77 auburn, w… fair       blue-gray       57   male 
#> 7 Anakin Sk…    188    84 blond      fair       blue            41.9 male 
#> 8 Wilhuff T…    180    NA auburn, g… fair       blue            64   male 
#> # … with 6 more variables: gender <chr>, homeworld <chr>, species <chr>,
#> #   films <list>, vehicles <list>, starships <list>
bind_rows(split(starwars, starwars$homeworld))
#> # A tibble: 77 × 14
#>    name      height  mass hair_color skin_color eye_color birth_year sex  
#>    <chr>      <int> <dbl> <chr>      <chr>      <chr>          <dbl> <chr>
#>  1 Leia Org…    150    49 brown      light      brown             19 fema…
#>  2 Bail Pre…    191    NA black      tan        brown             67 male 
#>  3 Raymus A…    188    79 brown      light      brown             NA male 
#>  4 Ratts Ty…     79    15 none       grey, blue unknown           NA male 
#>  5 Lobot        175    79 none       light      blue              37 male 
#>  6 Jek Tono…    180   110 brown      fair       blue              NA male 
#>  7 Nute Gun…    191    90 none       mottled g… red               NA male 
#>  8 Ki-Adi-M…    198    82 white      pale       yellow            92 male 
#>  9 Mas Amed…    196    NA none       blue       blue              NA male 
#> 10 Mon Moth…    150    NA auburn     fair       blue              48 fema…
#> # … with 67 more rows, and 6 more variables: gender <chr>,
#> #   homeworld <chr>, species <chr>, films <list>, vehicles <list>,
#> #   starships <list>
…
