Condense values into list-columns — condense • dplyr
…
if (requireNamespace("broom")) {
  mods %>% summarise(broom::glance(mod))
  mods %>% summarise(broom::tidy(mod))
  mods %>% summarise(broom::augment(mod))
}
#> Loading required namespace: broom
#> # A tibble: 32 x 10
#> # Rowwise:  cyl
#>      cyl   mpg  disp .fitted .se.fit .resid   .hat .sigma .cooksd .std.resid
#>    <dbl> <dbl> <dbl>   <dbl>   <dbl>  <dbl>  <dbl>  <dbl>   <dbl>      <dbl>
#>  1     4  22.8 108      26.3   0.855 -3.48  0.0920   2.70 0.0849     -1.29  
#>  2     4  24.4 147.     21.0   1.62   3.35  0.330    2.62 0.521       1.45  
#>  3     4  22.8 141.     21.8   1.46   0.956 0.267    2.96 0.0286      0.396 
#>  4     4  32.4  78.7    30.2   1.22   2.16  0.188    2.87 0.0838      0.852 
#>  5     4  30.4  75.7    30.6   1.29  -0.242 0.211    2.99 0.00125    -0.0965
#>  6     4  33.9  71.1    31.3   1.41   2.64  0.251    2.79 0.196       1.08  
#>  7     4  21.5 120.     24.6   0.984 -3.14  0.122    2.74 0.0982     -1.19  
#>  8     4  27.3  79      30.2   1.21  -2.90  0.186    2.77 0.148      -1.14  
#>  9     4  26   120.     24.6   0.988  1.39  0.123    2.94 0.0193      0.525 
#> 10     4  30.4  95.1    28.0   0.913  2.38  0.105    2.85 0.0466      0.892 
#> # … with 22 more rows
…
