…
# Use `pick()` to select columns with tidy-select
distinct(starwars, pick(contains("color")))
#> # A tibble: 67 × 3
#>    hair_color    skin_color  eye_color
#>    <chr>         <chr>       <chr>    
#>  1 blond         fair        blue     
#>  2 NA            gold        yellow   
#>  3 NA            white, blue red      
#>  4 none          white       yellow   
#>  5 brown         light       brown    
#>  6 brown, grey   light       blue     
#>  7 brown         light       blue     
#>  8 NA            white, red  red      
#>  9 black         light       brown    
#> 10 auburn, white fair        blue-gray
#> # ℹ 57 more rows
…
