…
Other single table verbs:
[`arrange()`](https://dplyr.tidyverse.org/dev/reference/arrange.md),
[`mutate()`](https://dplyr.tidyverse.org/dev/reference/mutate.md),
[`reframe()`](https://dplyr.tidyverse.org/dev/reference/reframe.md),
[`rename()`](https://dplyr.tidyverse.org/dev/reference/rename.md),
[`select()`](https://dplyr.tidyverse.org/dev/reference/select.md),
[`slice()`](https://dplyr.tidyverse.org/dev/reference/slice.md),
[`summarise()`](https://dplyr.tidyverse.org/dev/reference/summarise.md)

## Examples

``` r
# Filtering by one criterion
filter(starwars, species == "Human")
#> # A tibble: 35 × 14
#>    name   height  mass hair_color skin_color eye_color birth_year sex  
#>    <chr>   <int> <dbl> <chr>      <chr>      <chr>          <dbl> <chr>
#>  1 Luke …    172    77 blond      fair       blue            19   male 
#>  2 Darth…    202   136 none       white      yellow          41.9 male 
#>  3 Leia …    150    49 brown      light      brown           19   fema…
#>  4 Owen …    178   120 brown, gr… light      blue            52   male 
#>  5 Beru …    165    75 brown      light      blue            47   fema…
#>  6 Biggs…    183    84 black      light      brown           24   male 
#>  7 Obi-W…    182    77 auburn, w… fair       blue-gray       57   male 
#>  8 Anaki…    188    84 blond      fair       blue            41.9 male 
#>  9 Wilhu…    180    NA auburn, g… fair       blue            64   male 
#> 10 Han S…    180    80 brown      fair       brown           29   male 
#> # ℹ 25 more rows
#> # ℹ 6 more variables: gender <chr>, homeworld <chr>, species <chr>,
#> #   films <list>, vehicles <list>, starships <list>
…
#>   name    height  mass hair_color skin_color eye_color birth_year sex  
#>   <chr>    <int> <dbl> <chr>      <chr>      <chr>          <dbl> <chr>
#> 1 Nien N…    160    68 none       grey       black             NA male 
#> 2 Gasgano    122    NA none       white, bl… black             NA male 
#> 3 Kit Fi…    196    87 none       green      black             NA male 
#> 4 Plo Ko…    188    80 none       orange     black             22 male 
#> 5 Lama Su    229    88 none       grey       black             NA male 
#> 6 Taun We    213    NA none       grey       black             NA fema…
#> 7 Shaak …    178    57 none       red, blue… black             NA fema…
#> 8 Tion M…    206    80 none       grey       black             NA male 
#> 9 BB8         NA    NA none       none       black             NA none 
#> # ℹ 6 more variables: gender <chr>, homeworld <chr>, species <chr>,
#> #   films <list>, vehicles <list>, starships <list>
filter(starwars, hair_color == "none" | eye_color == "black")
#> # A tibble: 39 × 14
#>    name   height  mass hair_color skin_color eye_color birth_year sex  
#>    <chr>   <int> <dbl> <chr>      <chr>      <chr>          <dbl> <chr>
#>  1 Darth…    202   136 none       white      yellow          41.9 male 
#>  2 Greedo    173    74 NA         green      black           44   male 
#>  3 IG-88     200   140 none       metal      red             15   none 
#>  4 Bossk     190   113 none       green      red             53   male 
#>  5 Lobot     175    79 none       light      blue            37   male 
#>  6 Ackbar    180    83 none       brown mot… orange          41   male 
#>  7 Nien …    160    68 none       grey       black           NA   male 
#>  8 Nute …    191    90 none       mottled g… red             NA   male 
#>  9 Jar J…    196    66 none       orange     orange          52   male 
#> 10 Roos …    224    82 none       grey       orange          NA   male 
#> # ℹ 29 more rows
#> # ℹ 6 more variables: gender <chr>, homeworld <chr>, species <chr>,
#> #   films <list>, vehicles <list>, starships <list>
…
# To refer to column names that are stored as strings, use the `.data` pronoun:
vars <- c("mass", "height")
cond <- c(80, 150)
starwars |>
  filter(
    .data[[vars[[1]]]] > cond[[1]],
    .data[[vars[[2]]]] > cond[[2]]
  )
#> # A tibble: 21 × 14
#>    name   height  mass hair_color skin_color eye_color birth_year sex  
#>    <chr>   <int> <dbl> <chr>      <chr>      <chr>          <dbl> <chr>
#>  1 Darth…    202   136 none       white      yellow          41.9 male 
#>  2 Owen …    178   120 brown, gr… light      blue            52   male 
#>  3 Biggs…    183    84 black      light      brown           24   male 
#>  4 Anaki…    188    84 blond      fair       blue            41.9 male 
#>  5 Chewb…    228   112 brown      unknown    blue           200   male 
#>  6 Jabba…    175  1358 NA         green-tan… orange         600   herm…
#>  7 Jek T…    180   110 brown      fair       blue            NA   NA   
#>  8 IG-88     200   140 none       metal      red             15   none 
#>  9 Bossk     190   113 none       green      red             53   male 
#> 10 Ackbar    180    83 none       brown mot… orange          41   male 
#> # ℹ 11 more rows
#> # ℹ 6 more variables: gender <chr>, homeworld <chr>, species <chr>,
#> #   films <list>, vehicles <list>, starships <list>
…
