Keep rows that match a condition — filter • dplyr
…
    See also

    Other single table verbs: 
arrange(),
mutate(),
rename(),
select(),
slice(),
summarise()

    Examples

# Filtering by one criterion
filter(starwars, species == "Human")
#> # A tibble: 35 × 14
#>    name  height  mass hair_…¹ skin_…² eye_c…³ birth…⁴ sex   gender homew…⁵
#>    <chr>  <int> <dbl> <chr>   <chr>   <chr>     <dbl> <chr> <chr>  <chr>  
#>  1 Luke…    172    77 blond   fair    blue       19   male  mascu… Tatooi…
#>  2 Dart…    202   136 none    white   yellow     41.9 male  mascu… Tatooi…
#>  3 Leia…    150    49 brown   light   brown      19   fema… femin… Aldera…
#>  4 Owen…    178   120 brown,… light   blue       52   male  mascu… Tatooi…
#>  5 Beru…    165    75 brown   light   blue       47   fema… femin… Tatooi…
#>  6 Bigg…    183    84 black   light   brown      24   male  mascu… Tatooi…
#>  7 Obi-…    182    77 auburn… fair    blue-g…    57   male  mascu… Stewjon
#>  8 Anak…    188    84 blond   fair    blue       41.9 male  mascu… Tatooi…
#>  9 Wilh…    180    NA auburn… fair    blue       64   male  mascu… Eriadu 
#> 10 Han …    180    80 brown   fair    brown      29   male  mascu… Corell…
#> # … with 25 more rows, 4 more variables: species <chr>, films <list>,
#> #   vehicles <list>, starships <list>, and abbreviated variable names
#> #   ¹​hair_color, ²​skin_color, ³​eye_color, ⁴​birth_year, ⁵​homeworld
#> # ℹ Use `print(n = ...)` to see more rows, and `colnames()` to see all variable names
…
#> 1 Nien …    160    68 none    grey    black        NA male  mascu… Sullust
#> 2 Gasga…    122    NA none    white,… black        NA male  mascu… Troiken
#> 3 Kit F…    196    87 none    green   black        NA male  mascu… Glee A…
#> 4 Plo K…    188    80 none    orange  black        22 male  mascu… Dorin  
#> 5 Lama …    229    88 none    grey    black        NA male  mascu… Kamino 
#> 6 Taun …    213    NA none    grey    black        NA fema… femin… Kamino 
#> 7 Shaak…    178    57 none    red, b… black        NA fema… femin… Shili  
#> 8 Tion …    206    80 none    grey    black        NA male  mascu… Utapau 
#> 9 BB8        NA    NA none    none    black        NA none  mascu… NA     
#> # … with 4 more variables: species <chr>, films <list>, vehicles <list>,
#> #   starships <list>, and abbreviated variable names ¹​hair_color,
#> #   ²​skin_color, ³​eye_color, ⁴​birth_year, ⁵​homeworld
#> # ℹ Use `colnames()` to see all variable names
filter(starwars, hair_color == "none" | eye_color == "black")
#> # A tibble: 38 × 14
#>    name  height  mass hair_…¹ skin_…² eye_c…³ birth…⁴ sex   gender homew…⁵
#>    <chr>  <int> <dbl> <chr>   <chr>   <chr>     <dbl> <chr> <chr>  <chr>  
#>  1 Dart…    202   136 none    white   yellow     41.9 male  mascu… Tatooi…
#>  2 Gree…    173    74 NA      green   black      44   male  mascu… Rodia  
#>  3 IG-88    200   140 none    metal   red        15   none  mascu… NA     
#>  4 Bossk    190   113 none    green   red        53   male  mascu… Trando…
#>  5 Lobot    175    79 none    light   blue       37   male  mascu… Bespin 
#>  6 Ackb…    180    83 none    brown … orange     41   male  mascu… Mon Ca…
#>  7 Nien…    160    68 none    grey    black      NA   male  mascu… Sullust
#>  8 Nute…    191    90 none    mottle… red        NA   male  mascu… Cato N…
#>  9 Jar …    196    66 none    orange  orange     52   male  mascu… Naboo  
#> 10 Roos…    224    82 none    grey    orange     NA   male  mascu… Naboo  
#> # … with 28 more rows, 4 more variables: species <chr>, films <list>,
#> #   vehicles <list>, starships <list>, and abbreviated variable names
#> #   ¹​hair_color, ²​skin_color, ³​eye_color, ⁴​birth_year, ⁵​homeworld
#> # ℹ Use `print(n = ...)` to see more rows, and `colnames()` to see all variable names
…
# To refer to column names that are stored as strings, use the `.data` pronoun:
vars <- c("mass", "height")
cond <- c(80, 150)
starwars %>%
  filter(
    .data[[vars[[1]]]] > cond[[1]],
    .data[[vars[[2]]]] > cond[[2]]
  )
#> # A tibble: 21 × 14
#>    name  height  mass hair_…¹ skin_…² eye_c…³ birth…⁴ sex   gender homew…⁵
#>    <chr>  <int> <dbl> <chr>   <chr>   <chr>     <dbl> <chr> <chr>  <chr>  
#>  1 Dart…    202   136 none    white   yellow     41.9 male  mascu… Tatooi…
#>  2 Owen…    178   120 brown,… light   blue       52   male  mascu… Tatooi…
#>  3 Bigg…    183    84 black   light   brown      24   male  mascu… Tatooi…
#>  4 Anak…    188    84 blond   fair    blue       41.9 male  mascu… Tatooi…
#>  5 Chew…    228   112 brown   unknown blue      200   male  mascu… Kashyy…
#>  6 Jabb…    175  1358 NA      green-… orange    600   herm… mascu… Nal Hu…
#>  7 Jek …    180   110 brown   fair    blue       NA   male  mascu… Bestin…
#>  8 IG-88    200   140 none    metal   red        15   none  mascu… NA     
#>  9 Bossk    190   113 none    green   red        53   male  mascu… Trando…
#> 10 Ackb…    180    83 none    brown … orange     41   male  mascu… Mon Ca…
#> # … with 11 more rows, 4 more variables: species <chr>, films <list>,
#> #   vehicles <list>, starships <list>, and abbreviated variable names
#> #   ¹​hair_color, ²​skin_color, ³​eye_color, ⁴​birth_year, ⁵​homeworld
#> # ℹ Use `print(n = ...)` to see more rows, and `colnames()` to see all variable names
…
