Vectorised if-else — if_else • dplyr
…
# Unlike `ifelse()`, `if_else()` preserves types
x <- factor(sample(letters[1:5], 10, replace = TRUE))
ifelse(x %in% c("a", "b", "c"), x, NA)
#>  [1]  2  3 NA  3 NA  1  2  3  2 NA
if_else(x %in% c("a", "b", "c"), x, NA)
#>  [1] b    c    <NA> c    <NA> a    b    c    b    <NA>
#> Levels: a b c d e

# `if_else()` is often useful for creating new columns inside of `mutate()`
starwars %>%
  mutate(category = if_else(height < 100, "short", "tall"), .keep = "used")
#> # A tibble: 87 × 2
#>    height category
#>     <int> <chr>   
#>  1    172 tall    
#>  2    167 tall    
#>  3     96 short   
#>  4    202 tall    
#>  5    150 tall    
#>  6    178 tall    
#>  7    165 tall    
#>  8     97 short   
#>  9    183 tall    
#> 10    182 tall    
#> # ℹ 77 more rows
…
