Join data frame tbls — nest_join.data.frame • dplyr
…
# Left join: match, but preserve batting data
left_join(batting_df, uperson_df)

# Anti join: find batters without person data
anti_join(batting_df, person_df)
# or people who didn't bat
anti_join(person_df, batting_df)
}
#> Loading required package: Lahman
#> Joining, by = "playerID"
#> Joining, by = "playerID"
#> Joining, by = "playerID"
#> Joining, by = "playerID"
#> Joining, by = "playerID"
#> # A tibble: 189 x 26
#>    playerID birthYear birthMonth birthDay birthCountry birthState birthCity
#>    <chr>        <int>      <int>    <int> <chr>        <chr>      <chr>    
#>  1 actama99      1969          1       11 D.R.         San Pedro… San Pedr…
#>  2 adairbi…      1913          2       10 USA          AL         Mobile   
#>  3 armoubi…      1869          9        3 USA          PA         Homestead
#>  4 bancrfr…      1846          5        9 USA          MA         Lancaster
#>  5 barlial…      1915          4        2 USA          IL         Springfi…
#>  6 barroed…      1868          5       10 USA          IL         Springfi…
#>  7 bellco99      1903          5       17 USA          MS         Starkvil…
#>  8 bevinte…      1956          7        7 USA          OH         Akron    
#>  9 bezdehu…      1883          4        1 Czech Repub… <NA>       Prague   
#> 10 bicke99       1848          8       NA USA          DC         Washingt…
#> # … with 179 more rows, and 19 more variables: deathYear <int>,
#> #   deathMonth <int>, deathDay <int>, deathCountry <chr>, deathState <chr>,
#> #   deathCity <chr>, nameFirst <chr>, nameLast <chr>, nameGiven <chr>,
#> #   weight <int>, height <int>, bats <fct>, throws <fct>, debut <chr>,
#> #   finalGame <chr>, retroID <chr>, bbrefID <chr>, deathDate <date>,
#> #   birthDate <date>
…
