…
## Examples

``` r
# After nesting, you get one row per group
iris |> nest_by(Species)
#> # A tibble: 3 × 2
#> # Rowwise:  Species
#>   Species                  data
#>   <fct>      <list<tibble[,4]>>
#> 1 setosa               [50 × 4]
#> 2 versicolor           [50 × 4]
#> 3 virginica            [50 × 4]
starwars |> nest_by(species)
#> # A tibble: 38 × 2
#> # Rowwise:  species
#>    species                  data
#>    <chr>     <list<tibble[,13]>>
#>  1 Aleena               [1 × 13]
#>  2 Besalisk             [1 × 13]
#>  3 Cerean               [1 × 13]
#>  4 Chagrian             [1 × 13]
#>  5 Clawdite             [1 × 13]
#>  6 Droid                [6 × 13]
#>  7 Dug                  [1 × 13]
#>  8 Ewok                 [1 × 13]
#>  9 Geonosian            [1 × 13]
#> 10 Gungan               [3 × 13]
#> # ℹ 28 more rows
…
# Note that you can also `reframe()` to unnest the data
models |> reframe(data)
#> # A tibble: 32 × 11
#>      cyl   mpg  disp    hp  drat    wt  qsec    vs    am  gear  carb
#>    <dbl> <dbl> <dbl> <dbl> <dbl> <dbl> <dbl> <dbl> <dbl> <dbl> <dbl>
#>  1     4  22.8 108      93  3.85  2.32  18.6     1     1     4     1
#>  2     4  24.4 147.     62  3.69  3.19  20       1     0     4     2
#>  3     4  22.8 141.     95  3.92  3.15  22.9     1     0     4     2
#>  4     4  32.4  78.7    66  4.08  2.2   19.5     1     1     4     1
#>  5     4  30.4  75.7    52  4.93  1.62  18.5     1     1     4     2
#>  6     4  33.9  71.1    65  4.22  1.84  19.9     1     1     4     1
#>  7     4  21.5 120.     97  3.7   2.46  20.0     1     0     3     1
#>  8     4  27.3  79      66  4.08  1.94  18.9     1     1     4     1
#>  9     4  26   120.     91  4.43  2.14  16.7     0     1     5     2
#> 10     4  30.4  95.1   113  3.77  1.51  16.9     1     1     5     2
#> # ℹ 22 more rows
```
