Transform each group to an arbitrary number of rows — reframe • dplyr
…
starwars %>%
  reframe(quantile_df(height))
#> # A tibble: 3 × 2
#>     val quant
#>   <dbl> <dbl>
#> 1   167  0.25
#> 2   180  0.5 
#> 3   191  0.75

starwars %>%
  reframe(quantile_df(height), .by = homeworld)
#> # A tibble: 147 × 3
#>    homeworld   val quant
#>    <chr>     <dbl> <dbl>
#>  1 Tatooine   166.  0.25
#>  2 Tatooine   175   0.5 
#>  3 Tatooine   183   0.75
#>  4 Naboo      165   0.25
#>  5 Naboo      183   0.5 
#>  6 Naboo      190.  0.75
#>  7 Alderaan   169   0.25
#>  8 Alderaan   188   0.5 
#>  9 Alderaan   190.  0.75
#> 10 Stewjon    182   0.25
#> # ℹ 137 more rows

starwars %>%
  reframe(
    across(c(height, mass), quantile_df, .unpack = TRUE),
    .by = homeworld
  )
#> # A tibble: 147 × 5
#>    homeworld height_val height_quant mass_val mass_quant
#>    <chr>          <dbl>        <dbl>    <dbl>      <dbl>
#>  1 Tatooine        166.         0.25     75         0.25
#>  2 Tatooine        175          0.5      80.5       0.5 
#>  3 Tatooine        183          0.75     93         0.75
#>  4 Naboo           165          0.25     50.2       0.25
#>  5 Naboo           183          0.5      70.5       0.5 
#>  6 Naboo           190.         0.75     80.2       0.75
#>  7 Alderaan        169          0.25     56.5       0.25
#>  8 Alderaan        188          0.5      64         0.5 
#>  9 Alderaan        190.         0.75     71.5       0.75
#> 10 Stewjon         182          0.25     77         0.25
#> # ℹ 137 more rows
…
