Sample n rows from a table — sample • dplyr
…
#> # A tibble: 9 x 11
#> # Groups:   cyl [3]
#>     mpg   cyl  disp    hp  drat    wt  qsec    vs    am  gear  carb
#>   <dbl> <dbl> <dbl> <dbl> <dbl> <dbl> <dbl> <dbl> <dbl> <dbl> <dbl>
#> 1  22.8     4 141.     95  3.92  3.15  22.9     1     0     4     2
#> 2  26       4 120.     91  4.43  2.14  16.7     0     1     5     2
#> 3  30.4     4  95.1   113  3.77  1.51  16.9     1     1     5     2
#> 4  21       6 160     110  3.9   2.62  16.5     0     1     4     4
#> 5  21       6 160     110  3.9   2.88  17.0     0     1     4     4
#> 6  19.2     6 168.    123  3.92  3.44  18.3     1     0     4     4
#> 7  15.8     8 351     264  4.22  3.17  14.5     0     1     5     4
#> 8  14.7     8 440     230  3.23  5.34  17.4     0     0     3     4
#> 9  10.4     8 460     215  3     5.42  17.8     0     0     3     4
sample_n(by_cyl, 10, replace = TRUE)
#> # A tibble: 30 x 11
#> # Groups:   cyl [3]
#>      mpg   cyl  disp    hp  drat    wt  qsec    vs    am  gear  carb
#>    <dbl> <dbl> <dbl> <dbl> <dbl> <dbl> <dbl> <dbl> <dbl> <dbl> <dbl>
#>  1  22.8     4 141.     95  3.92  3.15  22.9     1     0     4     2
#>  2  24.4     4 147.     62  3.69  3.19  20       1     0     4     2
#>  3  33.9     4  71.1    65  4.22  1.84  19.9     1     1     4     1
#>  4  21.4     4 121     109  4.11  2.78  18.6     1     1     4     2
#>  5  30.4     4  95.1   113  3.77  1.51  16.9     1     1     5     2
#>  6  33.9     4  71.1    65  4.22  1.84  19.9     1     1     4     1
#>  7  33.9     4  71.1    65  4.22  1.84  19.9     1     1     4     1
#>  8  33.9     4  71.1    65  4.22  1.84  19.9     1     1     4     1
#>  9  32.4     4  78.7    66  4.08  2.2   19.5     1     1     4     1
#> 10  22.8     4 108      93  3.85  2.32  18.6     1     1     4     1
#> # … with 20 more rows
…
sample_frac(by_cyl, 0.2)
#> # A tibble: 6 x 11
#> # Groups:   cyl [3]
#>     mpg   cyl  disp    hp  drat    wt  qsec    vs    am  gear  carb
#>   <dbl> <dbl> <dbl> <dbl> <dbl> <dbl> <dbl> <dbl> <dbl> <dbl> <dbl>
#> 1  21.4     4 121     109  4.11  2.78  18.6     1     1     4     2
#> 2  30.4     4  95.1   113  3.77  1.51  16.9     1     1     5     2
#> 3  21       6 160     110  3.9   2.62  16.5     0     1     4     4
#> 4  19.2     8 400     175  3.08  3.84  17.0     0     0     3     2
#> 5  18.7     8 360     175  3.15  3.44  17.0     0     0     3     2
#> 6  16.4     8 276.    180  3.07  4.07  17.4     0     0     3     3
sample_frac(by_cyl, 1, replace = TRUE)
#> # A tibble: 32 x 11
#> # Groups:   cyl [3]
#>      mpg   cyl  disp    hp  drat    wt  qsec    vs    am  gear  carb
#>    <dbl> <dbl> <dbl> <dbl> <dbl> <dbl> <dbl> <dbl> <dbl> <dbl> <dbl>
#>  1  32.4     4  78.7    66  4.08  2.2   19.5     1     1     4     1
#>  2  24.4     4 147.     62  3.69  3.19  20       1     0     4     2
#>  3  30.4     4  95.1   113  3.77  1.51  16.9     1     1     5     2
#>  4  24.4     4 147.     62  3.69  3.19  20       1     0     4     2
#>  5  33.9     4  71.1    65  4.22  1.84  19.9     1     1     4     1
#>  6  32.4     4  78.7    66  4.08  2.2   19.5     1     1     4     1
#>  7  26       4 120.     91  4.43  2.14  16.7     0     1     5     2
#>  8  21.5     4 120.     97  3.7   2.46  20.0     1     0     3     1
#>  9  32.4     4  78.7    66  4.08  2.2   19.5     1     1     4     1
#> 10  24.4     4 147.     62  3.69  3.19  20       1     0     4     2
#> # … with 22 more rows
…
