Two-table verbs • dplyr
…
Filtering joins

Filtering joins match obserations in the same way as mutating joins, but affect the observations, not the variables. There are two types:

semi_join(x, y) keeps all observations in x that have a match in y.

anti_join(x, y) drops all observations in x that have a match in y.

These are most useful for diagnosing join mismatches. For example, there are many flights in the nycflights13 dataset that don’t have a matching tail number in the planes table:

library("nycflights13")
flights %>% 
  anti_join(planes, by = "tailnum") %>% 
  count(tailnum, sort = TRUE)
#> # A tibble: 722 × 2
#>   tailnum     n
#>     <chr> <int>
#> 1    <NA>  2512
#> 2  N725MQ   575
#> 3  N722MQ   513
#> 4  N723MQ   507
#> 5  N713MQ   483
#> # ... with 717 more rows
…
