Return rows with matching conditions — filter • dplyr
…
    See also

    filter_all(), filter_if() and filter_at().

Other single table verbs: arrange,
  mutate, select,
  slice, summarise

    Examples

filter(starwars, species == "Human")
#> # A tibble: 35 x 13
#>    name  height  mass hair_color skin_color eye_color birth_year gender
#>    <chr>  <int> <dbl> <chr>      <chr>      <chr>          <dbl> <chr> 
#>  1 Luke…    172    77 blond      fair       blue            19   male  
#>  2 Dart…    202   136 none       white      yellow          41.9 male  
#>  3 Leia…    150    49 brown      light      brown           19   female
#>  4 Owen…    178   120 brown, gr… light      blue            52   male  
#>  5 Beru…    165    75 brown      light      blue            47   female
#>  6 Bigg…    183    84 black      light      brown           24   male  
#>  7 Obi-…    182    77 auburn, w… fair       blue-gray       57   male  
#>  8 Anak…    188    84 blond      fair       blue            41.9 male  
#>  9 Wilh…    180    NA auburn, g… fair       blue            64   male  
#> 10 Han …    180    80 brown      fair       brown           29   male  
#> # … with 25 more rows, and 5 more variables: homeworld <chr>, species <chr>,
#> #   films <list>, vehicles <list>, starships <list>
…
#>   name  height  mass hair_color skin_color eye_color birth_year gender homeworld
#>   <chr>  <int> <dbl> <chr>      <chr>      <chr>          <dbl> <chr>  <chr>    
#> 1 Nien…    160    68 none       grey       black             NA male   Sullust  
#> 2 Gasg…    122    NA none       white, bl… black             NA male   Troiken  
#> 3 Kit …    196    87 none       green      black             NA male   Glee Ans…
#> 4 Plo …    188    80 none       orange     black             22 male   Dorin    
#> 5 Lama…    229    88 none       grey       black             NA male   Kamino   
#> 6 Taun…    213    NA none       grey       black             NA female Kamino   
#> 7 Shaa…    178    57 none       red, blue… black             NA female Shili    
#> 8 Tion…    206    80 none       grey       black             NA male   Utapau   
#> 9 BB8       NA    NA none       none       black             NA none   NA       
#> # … with 4 more variables: species <chr>, films <list>, vehicles <list>,
#> #   starships <list>
filter(starwars, hair_color == "none" | eye_color == "black")
#> # A tibble: 38 x 13
#>    name  height  mass hair_color skin_color eye_color birth_year gender
#>    <chr>  <int> <dbl> <chr>      <chr>      <chr>          <dbl> <chr> 
#>  1 Dart…    202   136 none       white      yellow          41.9 male  
#>  2 Gree…    173    74 NA         green      black           44   male  
#>  3 IG-88    200   140 none       metal      red             15   none  
#>  4 Bossk    190   113 none       green      red             53   male  
#>  5 Lobot    175    79 none       light      blue            37   male  
#>  6 Ackb…    180    83 none       brown mot… orange          41   male  
#>  7 Nien…    160    68 none       grey       black           NA   male  
#>  8 Nute…    191    90 none       mottled g… red             NA   male  
#>  9 Jar …    196    66 none       orange     orange          52   male  
#> 10 Roos…    224    82 none       grey       orange          NA   male  
#> # … with 28 more rows, and 5 more variables: homeworld <chr>, species <chr>,
#> #   films <list>, vehicles <list>, starships <list>
…
