Join data frame tbls. — join.tbl_df • dplyr
…
# Left join: match, but preserve batting data
left_join(batting_df, uperson_df)

# Anti join: find batters without person data
anti_join(batting_df, person_df)
# or people who didn't bat
anti_join(person_df, batting_df)
}
#> Joining, by = "playerID"
#> Joining, by = "playerID"
#> Joining, by = "playerID"
#> Joining, by = "playerID"
#> Joining, by = "playerID"
#> # A tibble: 187 × 26
#>     playerID birthYear birthMonth birthDay birthCountry birthState    birthCity
#>        <chr>     <int>      <int>    <int>        <chr>      <chr>        <chr>
#> 1  youngni99      1840          9       12          USA         NY    Amsterdam
#> 2  yawketo99      1903          2       21          USA         MI      Detroit
#> 3  wrighal99      1842          3       31          USA         NY     New York
#> 4  winklbo99      1930          3       11          USA         AR    Tuckerman
#> 5  wilsoju99      1896          2       28          USA         VA    Remington
#> 6  willijo99      1885          4        6          USA         TX       Seguin
#> 7  wellswi99      1905          8       10          USA         TX       Austin
#> 8  watkiha99      1869          6       14          USA         NY Seneca Falls
#> 9  waltzjo99      1860          1       12          USA         MD   Hagerstown
#> 10 turnete99      1938         11       19          USA         OH   Cincinnati
#> # ... with 177 more rows, and 19 more variables: deathYear <int>,
#> #   deathMonth <int>, deathDay <int>, deathCountry <chr>, deathState <chr>,
#> #   deathCity <chr>, nameFirst <chr>, nameLast <chr>, nameGiven <chr>,
#> #   weight <int>, height <int>, bats <fctr>, throws <fctr>, debut <chr>,
#> #   finalGame <chr>, retroID <chr>, bbrefID <chr>, deathDate <date>,
#> #   birthDate <date>
…
