Select helpers — select_helpers • dplyr
…
      ...
      One or more character vectors.

    Value

    An integer vector giving the position of the matched variables.

    Examples

iris <- tbl_df(iris) # so it prints a little nicer
select(iris, starts_with("Petal"))
#> # A tibble: 150 × 2
#>    Petal.Length Petal.Width
#>           <dbl>       <dbl>
#> 1           1.4         0.2
#> 2           1.4         0.2
#> 3           1.3         0.2
#> 4           1.5         0.2
#> 5           1.4         0.2
#> 6           1.7         0.4
#> 7           1.4         0.3
#> 8           1.5         0.2
#> 9           1.4         0.2
#> 10          1.5         0.1
#> # ... with 140 more rows
select(iris, ends_with("Width"))
#> # A tibble: 150 × 2
#>    Sepal.Width Petal.Width
#>          <dbl>       <dbl>
#> 1          3.5         0.2
#> 2          3.0         0.2
#> 3          3.2         0.2
#> 4          3.1         0.2
#> 5          3.6         0.2
#> 6          3.9         0.4
#> 7          3.4         0.3
#> 8          3.4         0.2
#> 9          2.9         0.2
#> 10         3.1         0.1
#> # ... with 140 more rows
select(iris, contains("etal"))
#> # A tibble: 150 × 2
#>    Petal.Length Petal.Width
#>           <dbl>       <dbl>
#> 1           1.4         0.2
#> 2           1.4         0.2
#> 3           1.3         0.2
#> 4           1.5         0.2
#> 5           1.4         0.2
#> 6           1.7         0.4
#> 7           1.4         0.3
#> 8           1.5         0.2
#> 9           1.4         0.2
#> 10          1.5         0.1
#> # ... with 140 more rows
select(iris, matches(".t."))
#> # A tibble: 150 × 4
#>    Sepal.Length Sepal.Width Petal.Length Petal.Width
#>           <dbl>       <dbl>        <dbl>       <dbl>
#> 1           5.1         3.5          1.4         0.2
#> 2           4.9         3.0          1.4         0.2
#> 3           4.7         3.2          1.3         0.2
#> 4           4.6         3.1          1.5         0.2
#> 5           5.0         3.6          1.4         0.2
#> 6           5.4         3.9          1.7         0.4
#> 7           4.6         3.4          1.4         0.3
#> 8           5.0         3.4          1.5         0.2
#> 9           4.4         2.9          1.4         0.2
#> 10          4.9         3.1          1.5         0.1
#> # ... with 140 more rows
select(iris, Petal.Length, Petal.Width)
#> # A tibble: 150 × 2
#>    Petal.Length Petal.Width
#>           <dbl>       <dbl>
#> 1           1.4         0.2
#> 2           1.4         0.2
#> 3           1.3         0.2
#> 4           1.5         0.2
#> 5           1.4         0.2
#> 6           1.7         0.4
#> 7           1.4         0.3
#> 8           1.5         0.2
#> 9           1.4         0.2
#> 10          1.5         0.1
#> # ... with 140 more rows
select(iris, everything())
#> # A tibble: 150 × 5
#>    Sepal.Length Sepal.Width Petal.Length Petal.Width Species
#>           <dbl>       <dbl>        <dbl>       <dbl>  <fctr>
#> 1           5.1         3.5          1.4         0.2  setosa
#> 2           4.9         3.0          1.4         0.2  setosa
#> 3           4.7         3.2          1.3         0.2  setosa
#> 4           4.6         3.1          1.5         0.2  setosa
#> 5           5.0         3.6          1.4         0.2  setosa
#> 6           5.4         3.9          1.7         0.4  setosa
#> 7           4.6         3.4          1.4         0.3  setosa
#> 8           5.0         3.4          1.5         0.2  setosa
#> 9           4.4         2.9          1.4         0.2  setosa
#> 10          4.9         3.1          1.5         0.1  setosa
#> # ... with 140 more rows
vars <- c("Petal.Length", "Petal.Width")
select(iris, one_of(vars))
#> # A tibble: 150 × 2
#>    Petal.Length Petal.Width
#>           <dbl>       <dbl>
#> 1           1.4         0.2
#> 2           1.4         0.2
#> 3           1.3         0.2
#> 4           1.5         0.2
#> 5           1.4         0.2
#> 6           1.7         0.4
#> 7           1.4         0.3
#> 8           1.5         0.2
#> 9           1.4         0.2
#> 10          1.5         0.1
#> # ... with 140 more rows
…
