Select/rename variables by name — select • dplyr
…
    When applied to a data frame, row names are silently dropped. To preserve,
convert to an explicit variable with tibble::rownames_to_column().

    See also

    Other single table verbs: arrange,
  filter, mutate,
  slice, summarise

    Examples

iris <- as_tibble(iris) # so it prints a little nicer
select(iris, starts_with("Petal"))
#> # A tibble: 150 x 2
#>    Petal.Length Petal.Width
#>           <dbl>       <dbl>
#>  1          1.4         0.2
#>  2          1.4         0.2
#>  3          1.3         0.2
#>  4          1.5         0.2
#>  5          1.4         0.2
#>  6          1.7         0.4
#>  7          1.4         0.3
#>  8          1.5         0.2
#>  9          1.4         0.2
#> 10          1.5         0.1
#> # … with 140 more rows
select(iris, ends_with("Width"))
#> # A tibble: 150 x 2
#>    Sepal.Width Petal.Width
#>          <dbl>       <dbl>
#>  1         3.5         0.2
#>  2         3           0.2
#>  3         3.2         0.2
#>  4         3.1         0.2
#>  5         3.6         0.2
#>  6         3.9         0.4
#>  7         3.4         0.3
#>  8         3.4         0.2
#>  9         2.9         0.2
#> 10         3.1         0.1
#> # … with 140 more rows

# Move Species variable to the front
select(iris, Species, everything())
#> # A tibble: 150 x 5
#>    Species Sepal.Length Sepal.Width Petal.Length Petal.Width
#>    <fct>          <dbl>       <dbl>        <dbl>       <dbl>
#>  1 setosa           5.1         3.5          1.4         0.2
#>  2 setosa           4.9         3            1.4         0.2
#>  3 setosa           4.7         3.2          1.3         0.2
#>  4 setosa           4.6         3.1          1.5         0.2
#>  5 setosa           5           3.6          1.4         0.2
#>  6 setosa           5.4         3.9          1.7         0.4
#>  7 setosa           4.6         3.4          1.4         0.3
#>  8 setosa           5           3.4          1.5         0.2
#>  9 setosa           4.4         2.9          1.4         0.2
#> 10 setosa           4.9         3.1          1.5         0.1
#> # … with 140 more rows
…
# Drop variables with -
select(iris, -starts_with("Petal"))
#> # A tibble: 150 x 3
#>    Sepal.Length Sepal.Width Species
#>           <dbl>       <dbl> <fct>  
#>  1          5.1         3.5 setosa 
#>  2          4.9         3   setosa 
#>  3          4.7         3.2 setosa 
#>  4          4.6         3.1 setosa 
#>  5          5           3.6 setosa 
#>  6          5.4         3.9 setosa 
#>  7          4.6         3.4 setosa 
#>  8          5           3.4 setosa 
#>  9          4.4         2.9 setosa 
#> 10          4.9         3.1 setosa 
#> # … with 140 more rows
…
# However it isn't available within calls since those are evaluated
# outside of the data context. This would fail if run:
# select(mtcars, identical(.data$cyl))

# Renaming -----------------------------------------
# * select() keeps only the variables you specify
select(iris, petal_length = Petal.Length)
#> # A tibble: 150 x 1
#>    petal_length
#>           <dbl>
#>  1          1.4
#>  2          1.4
#>  3          1.3
#>  4          1.5
#>  5          1.4
#>  6          1.7
#>  7          1.4
#>  8          1.5
#>  9          1.4
#> 10          1.5
#> # … with 140 more rows

# * rename() keeps all variables
rename(iris, petal_length = Petal.Length)
#> # A tibble: 150 x 5
#>    Sepal.Length Sepal.Width petal_length Petal.Width Species
#>           <dbl>       <dbl>        <dbl>       <dbl> <fct>  
#>  1          5.1         3.5          1.4         0.2 setosa 
#>  2          4.9         3            1.4         0.2 setosa 
#>  3          4.7         3.2          1.3         0.2 setosa 
#>  4          4.6         3.1          1.5         0.2 setosa 
#>  5          5           3.6          1.4         0.2 setosa 
#>  6          5.4         3.9          1.7         0.4 setosa 
#>  7          4.6         3.4          1.4         0.3 setosa 
#>  8          5           3.4          1.5         0.2 setosa 
#>  9          4.4         2.9          1.4         0.2 setosa 
#> 10          4.9         3.1          1.5         0.1 setosa 
#> # … with 140 more rows
…
