Select rows by position — slice • dplyr
…
    Examples

slice(mtcars, 1L)
#> # A tibble: 1 × 11
#>     mpg   cyl  disp    hp  drat    wt  qsec    vs    am  gear  carb
#>   <dbl> <dbl> <dbl> <dbl> <dbl> <dbl> <dbl> <dbl> <dbl> <dbl> <dbl>
#> 1    21     6   160   110   3.9  2.62 16.46     0     1     4     4
slice(mtcars, n())
#> # A tibble: 1 × 11
#>     mpg   cyl  disp    hp  drat    wt  qsec    vs    am  gear  carb
#>   <dbl> <dbl> <dbl> <dbl> <dbl> <dbl> <dbl> <dbl> <dbl> <dbl> <dbl>
#> 1  21.4     4   121   109  4.11  2.78  18.6     1     1     4     2
slice(mtcars, 5:n())
#> # A tibble: 28 × 11
#>      mpg   cyl  disp    hp  drat    wt  qsec    vs    am  gear  carb
#>    <dbl> <dbl> <dbl> <dbl> <dbl> <dbl> <dbl> <dbl> <dbl> <dbl> <dbl>
#> 1   18.7     8 360.0   175  3.15  3.44 17.02     0     0     3     2
#> 2   18.1     6 225.0   105  2.76  3.46 20.22     1     0     3     1
#> 3   14.3     8 360.0   245  3.21  3.57 15.84     0     0     3     4
#> 4   24.4     4 146.7    62  3.69  3.19 20.00     1     0     4     2
#> 5   22.8     4 140.8    95  3.92  3.15 22.90     1     0     4     2
#> 6   19.2     6 167.6   123  3.92  3.44 18.30     1     0     4     4
#> 7   17.8     6 167.6   123  3.92  3.44 18.90     1     0     4     4
#> 8   16.4     8 275.8   180  3.07  4.07 17.40     0     0     3     3
#> 9   17.3     8 275.8   180  3.07  3.73 17.60     0     0     3     3
#> 10  15.2     8 275.8   180  3.07  3.78 18.00     0     0     3     3
#> # ... with 18 more rows
…
