Summarise and mutate multiple columns. — summarise_all • dplyr
…
# There are three variants.
# * _all affects every variable
# * _at affects variables selected with a character vector or vars()
# * _if affects variables selected with a predicate function:

# The _at() variants directly support strings:
starwars %>% summarise_at(c("height", "mass"), mean, na.rm = TRUE)
#> # A tibble: 1 x 2
#>   height  mass
#>    <dbl> <dbl>
#> 1   174.  97.3

# You can also supply selection helpers to _at() functions but you have
# to quote them with vars():
iris %>% mutate_at(vars(matches("Sepal")), log)
#>     Sepal.Length Sepal.Width Petal.Length Petal.Width    Species
#> 1       1.629241   1.2527630          1.4         0.2     setosa
#> 2       1.589235   1.0986123          1.4         0.2     setosa
#> 3       1.547563   1.1631508          1.3         0.2     setosa
#> 4       1.526056   1.1314021          1.5         0.2     setosa
#> 5       1.609438   1.2809338          1.4         0.2     setosa
#> 6       1.686399   1.3609766          1.7         0.4     setosa
#> 7       1.526056   1.2237754          1.4         0.3     setosa
#> 8       1.609438   1.2237754          1.5         0.2     setosa
#> 9       1.481605   1.0647107          1.4         0.2     setosa
#> 10      1.589235   1.1314021          1.5         0.1     setosa
#> 11      1.686399   1.3083328          1.5         0.2     setosa
#> 12      1.568616   1.2237754          1.6         0.2     setosa
#> 13      1.568616   1.0986123          1.4         0.1     setosa
#> 14      1.458615   1.0986123          1.1         0.1     setosa
#> 15      1.757858   1.3862944          1.2         0.2     setosa
#> 16      1.740466   1.4816045          1.5         0.4     setosa
#> 17      1.686399   1.3609766          1.3         0.4     setosa
#> 18      1.629241   1.2527630          1.4         0.3     setosa
#> 19      1.740466   1.3350011          1.7         0.3     setosa
#> 20      1.629241   1.3350011          1.5         0.3     setosa
#>  [ reached getOption("max.print") -- omitted 130 rows ]
…
# The _if() variants apply a predicate function (a function that
# returns TRUE or FALSE) to determine the relevant subset of
# columns. Here we apply mean() to the numeric columns:
starwars %>% summarise_if(is.numeric, mean, na.rm = TRUE)
#> # A tibble: 1 x 3
#>   height  mass birth_year
#>    <dbl> <dbl>      <dbl>
#> 1   174.  97.3       87.6

# mutate_if() is particularly useful for transforming variables from
# one type to another
iris %>% as_tibble() %>% mutate_if(is.factor, as.character)
#> # A tibble: 150 x 5
#>    Sepal.Length Sepal.Width Petal.Length Petal.Width Species
#>           <dbl>       <dbl>        <dbl>       <dbl> <chr>  
#>  1          5.1         3.5          1.4         0.2 setosa 
#>  2          4.9         3            1.4         0.2 setosa 
#>  3          4.7         3.2          1.3         0.2 setosa 
#>  4          4.6         3.1          1.5         0.2 setosa 
#>  5          5           3.6          1.4         0.2 setosa 
#>  6          5.4         3.9          1.7         0.4 setosa 
#>  7          4.6         3.4          1.4         0.3 setosa 
#>  8          5           3.4          1.5         0.2 setosa 
#>  9          4.4         2.9          1.4         0.2 setosa 
#> 10          4.9         3.1          1.5         0.1 setosa 
#> # ... with 140 more rows
iris %>% as_tibble() %>% mutate_if(is.double, as.integer)
#> # A tibble: 150 x 5
#>    Sepal.Length Sepal.Width Petal.Length Petal.Width Species
#>           <int>       <int>        <int>       <int> <fct>  
#>  1            5           3            1           0 setosa 
#>  2            4           3            1           0 setosa 
#>  3            4           3            1           0 setosa 
#>  4            4           3            1           0 setosa 
#>  5            5           3            1           0 setosa 
#>  6            5           3            1           0 setosa 
#>  7            4           3            1           0 setosa 
#>  8            5           3            1           0 setosa 
#>  9            4           2            1           0 setosa 
#> 10            4           3            1           0 setosa 
#> # ... with 140 more rows
…
by_species %>% summarise_all(funs(min, max))
#> # A tibble: 3 x 9
#>   Species    Sepal.Length_min Sepal.Width_min Petal.Length_min Petal.Width_min
#>   <fct>                 <dbl>           <dbl>            <dbl>           <dbl>
#> 1 setosa                  4.3             2.3              1               0.1
#> 2 versicolor              4.9             2                3               1  
#> 3 virginica               4.9             2.2              4.5             1.4
#> # ... with 4 more variables: Sepal.Length_max <dbl>, Sepal.Width_max <dbl>,
#> #   Petal.Length_max <dbl>, Petal.Width_max <dbl>
# Note that output variable name now includes the function name, in order to
# keep things distinct.

# You can express more complex inline transformations using .
by_species %>% mutate_all(funs(. / 2.54))
#> # A tibble: 150 x 5
#> # Groups:   Species [3]
#>    Sepal.Length Sepal.Width Petal.Length Petal.Width Species
#>           <dbl>       <dbl>        <dbl>       <dbl> <fct>  
#>  1         2.01        1.38        0.551      0.0787 setosa 
#>  2         1.93        1.18        0.551      0.0787 setosa 
#>  3         1.85        1.26        0.512      0.0787 setosa 
#>  4         1.81        1.22        0.591      0.0787 setosa 
#>  5         1.97        1.42        0.551      0.0787 setosa 
#>  6         2.13        1.54        0.669      0.157  setosa 
#>  7         1.81        1.34        0.551      0.118  setosa 
#>  8         1.97        1.34        0.591      0.0787 setosa 
#>  9         1.73        1.14        0.551      0.0787 setosa 
#> 10         1.93        1.22        0.591      0.0394 setosa 
#> # ... with 140 more rows

# Function names will be included if .funs has names or multiple inputs
by_species %>% mutate_all(funs(inches = . / 2.54))
#> # A tibble: 150 x 9
#> # Groups:   Species [3]
#>    Sepal.Length Sepal.Width Petal.Length Petal.Width Species Sepal.Length_inch…
#>           <dbl>       <dbl>        <dbl>       <dbl> <fct>                <dbl>
#>  1          5.1         3.5          1.4         0.2 setosa                2.01
#>  2          4.9         3            1.4         0.2 setosa                1.93
#>  3          4.7         3.2          1.3         0.2 setosa                1.85
#>  4          4.6         3.1          1.5         0.2 setosa                1.81
#>  5          5           3.6          1.4         0.2 setosa                1.97
#>  6          5.4         3.9          1.7         0.4 setosa                2.13
#>  7          4.6         3.4          1.4         0.3 setosa                1.81
#>  8          5           3.4          1.5         0.2 setosa                1.97
#>  9          4.4         2.9          1.4         0.2 setosa                1.73
#> 10          4.9         3.1          1.5         0.1 setosa                1.93
#> # ... with 140 more rows, and 3 more variables: Sepal.Width_inches <dbl>,
#> #   Petal.Length_inches <dbl>, Petal.Width_inches <dbl>
…
