…
``` r
starwars |>
  summarise(across(where(is.character), n_distinct))
#> # A tibble: 1 × 8
#>    name hair_color skin_color eye_color   sex gender homeworld species
#>   <int>      <int>      <int>     <int> <int>  <int>     <int>   <int>
#> 1    87         12         31        15     5      3        49      38

starwars |>
  group_by(species) |>
  filter(n() > 1) |>
  summarise(across(c(sex, gender, homeworld), n_distinct))
#> # A tibble: 9 × 4
#>   species    sex gender homeworld
#>   <chr>    <int>  <int>     <int>
#> 1 Droid        1      2         3
#> 2 Gungan       1      1         1
#> 3 Human        2      2        15
#> 4 Kaminoan     2      2         1
#> # ℹ 5 more rows

starwars |>
  group_by(homeworld) |>
  filter(n() > 1) |>
  summarise(across(where(is.numeric), ~ mean(.x, na.rm = TRUE)))
#> # A tibble: 10 × 4
#>   homeworld height  mass birth_year
#>   <chr>      <dbl> <dbl>      <dbl>
#> 1 Alderaan    176.  64         43  
#> 2 Corellia    175   78.5       25  
#> 3 Coruscant   174.  50         91  
#> 4 Kamino      208.  83.1       31.5
#> # ℹ 6 more rows
```
…
- Find all distinct

  ``` r
  starwars |> distinct(pick(contains("color")))
  #> # A tibble: 67 × 3
  #>   hair_color skin_color  eye_color
  #>   <chr>      <chr>       <chr>    
  #> 1 blond      fair        blue     
  #> 2 NA         gold        yellow   
  #> 3 NA         white, blue red      
  #> 4 none       white       yellow   
  #> # ℹ 63 more rows
  ```

- Count all combinations of variables with a given pattern:

  ``` r
  starwars |> count(pick(contains("color")), sort = TRUE)
  #> # A tibble: 67 × 4
  #>   hair_color skin_color eye_color     n
  #>   <chr>      <chr>      <chr>     <int>
  #> 1 brown      light      brown         6
  #> 2 brown      fair       blue          4
  #> 3 none       grey       black         4
  #> 4 black      dark       brown         3
  #> # ℹ 63 more rows
  ```
…
- [`if_any()`](https://dplyr.tidyverse.org/reference/across.md) keeps
  the rows where the predicate is true for *at least one* selected
  column:

``` r
starwars |>
  filter_out(if_any(everything(), is.na))
#> # A tibble: 29 × 14
#>   name    height  mass hair_color skin_color eye_color birth_year sex  
#>   <chr>    <int> <dbl> <chr>      <chr>      <chr>          <dbl> <chr>
#> 1 Luke S…    172    77 blond      fair       blue            19   male 
#> 2 Darth …    202   136 none       white      yellow          41.9 male 
#> 3 Leia O…    150    49 brown      light      brown           19   fema…
#> 4 Owen L…    178   120 brown, gr… light      blue            52   male 
#> # ℹ 25 more rows
#> # ℹ 6 more variables: gender <chr>, homeworld <chr>, species <chr>,
#> #   films <list>, vehicles <list>, starships <list>
```

- [`if_all()`](https://dplyr.tidyverse.org/reference/across.md) keeps
  the rows where the predicate is true for *all* selected columns:

``` r
starwars |>
  filter_out(if_all(everything(), is.na))
#> # A tibble: 87 × 14
#>   name    height  mass hair_color skin_color eye_color birth_year sex  
#>   <chr>    <int> <dbl> <chr>      <chr>      <chr>          <dbl> <chr>
#> 1 Luke S…    172    77 blond      fair       blue            19   male 
#> 2 C-3PO      167    75 NA         gold       yellow         112   none 
#> 3 R2-D2       96    32 NA         white, bl… red             33   none 
#> 4 Darth …    202   136 none       white      yellow          41.9 male 
#> # ℹ 83 more rows
#> # ℹ 6 more variables: gender <chr>, homeworld <chr>, species <chr>,
#> #   films <list>, vehicles <list>, starships <list>
```
…
