…
## Per row summary statistics

[`dplyr::summarise()`](https://dplyr.tidyverse.org/reference/summarise.md)
makes it really easy to summarise values across rows within one column.
When combined with
[`rowwise()`](https://dplyr.tidyverse.org/reference/rowwise.md) it also
makes it easy to summarise values across columns within one row. To see
how, we’ll start by making a little dataset:

``` r
df <- tibble(id = 1:6, w = 10:15, x = 20:25, y = 30:35, z = 40:45)
df
#> # A tibble: 6 × 5
#>      id     w     x     y     z
#>   <int> <int> <int> <int> <int>
#> 1     1    10    20    30    40
#> 2     2    11    21    31    41
#> 3     3    12    22    32    42
#> 4     4    13    23    33    43
#> # ℹ 2 more rows
```
…
``` r
rf <- df |> rowwise(id)
```

We can then use
[`mutate()`](https://dplyr.tidyverse.org/reference/mutate.md) to add a
new column to each row, or
[`summarise()`](https://dplyr.tidyverse.org/reference/summarise.md) to
return just that one summary:

``` r
rf |> mutate(total = sum(c(w, x, y, z)))
#> # A tibble: 6 × 6
#> # Rowwise:  id
#>      id     w     x     y     z total
#>   <int> <int> <int> <int> <int> <int>
#> 1     1    10    20    30    40   100
#> 2     2    11    21    31    41   104
#> 3     3    12    22    32    42   108
#> 4     4    13    23    33    43   112
#> # ℹ 2 more rows
rf |> summarise(total = sum(c(w, x, y, z)))
#> `summarise()` has converted the output from a rowwise data frame to a
#> grouped data frame.
#> ℹ Summaries were computed rowwise.
#> ℹ Output is grouped by id.
#> ℹ Use `summarise(.groups = "keep")` to silence this message.
#> # A tibble: 6 × 2
#> # Groups:   id [6]
#>      id total
#>   <int> <int>
#> 1     1   100
#> 2     2   104
#> 3     3   108
#> 4     4   112
#> # ℹ 2 more rows
```

Of course, if you have a lot of variables, it’s going to be tedious to
type in every variable name. Instead, you can use
[`c_across()`](https://dplyr.tidyverse.org/reference/c_across.md) which
uses tidy selection syntax so you can to succinctly select many
variables:

``` r
rf |> mutate(total = sum(c_across(w:z)))
#> # A tibble: 6 × 6
#> # Rowwise:  id
#>      id     w     x     y     z total
#>   <int> <int> <int> <int> <int> <int>
#> 1     1    10    20    30    40   100
#> 2     2    11    21    31    41   104
#> 3     3    12    22    32    42   108
#> 4     4    13    23    33    43   112
#> # ℹ 2 more rows
rf |> mutate(total = sum(c_across(where(is.numeric))))
#> # A tibble: 6 × 6
#> # Rowwise:  id
#>      id     w     x     y     z total
#>   <int> <int> <int> <int> <int> <int>
#> 1     1    10    20    30    40   100
#> 2     2    11    21    31    41   104
#> 3     3    12    22    32    42   108
#> 4     4    13    23    33    43   112
#> # ℹ 2 more rows
```

You could combine this with column-wise operations (see
[`vignette("colwise")`](https://dplyr.tidyverse.org/articles/colwise.md)
for more details) to compute the proportion of the total for each
column:

``` r
rf |>
  mutate(total = sum(c_across(w:z))) |>
  ungroup() |>
  mutate(across(w:z, ~ . / total))
#> # A tibble: 6 × 6
#>      id     w     x     y     z total
#>   <int> <dbl> <dbl> <dbl> <dbl> <int>
#> 1     1 0.1   0.2   0.3   0.4     100
#> 2     2 0.106 0.202 0.298 0.394   104
#> 3     3 0.111 0.204 0.296 0.389   108
#> 4     4 0.116 0.205 0.295 0.384   112
#> # ℹ 2 more rows
```

### Row-wise summary functions

The [`rowwise()`](https://dplyr.tidyverse.org/reference/rowwise.md)
approach will work for any summary function. But if you need greater
speed, it’s worth looking for a built-in row-wise variant of your
summary function. These are more efficient because they operate on the
data frame as whole; they don’t split it into rows, compute the summary,
and then join the results back together again.

``` r
df |> mutate(total = rowSums(pick(where(is.numeric), -id)))
#> # A tibble: 6 × 6
#>      id     w     x     y     z total
#>   <int> <int> <int> <int> <int> <dbl>
#> 1     1    10    20    30    40   100
#> 2     2    11    21    31    41   104
#> 3     3    12    22    32    42   108
#> 4     4    13    23    33    43   112
#> # ℹ 2 more rows
df |> mutate(mean = rowMeans(pick(where(is.numeric), -id)))
#> # A tibble: 6 × 6
#>      id     w     x     y     z  mean
#>   <int> <int> <int> <int> <int> <dbl>
#> 1     1    10    20    30    40    25
#> 2     2    11    21    31    41    26
#> 3     3    12    22    32    42    27
#> 4     4    13    23    33    43    28
#> # ℹ 2 more rows
```
…
Or easily access the parameters of each model:

``` r
mods |> reframe(broom::tidy(mod))
#> # A tibble: 6 × 6
#>     cyl term        estimate std.error statistic    p.value
#>   <dbl> <chr>          <dbl>     <dbl>     <dbl>      <dbl>
#> 1     4 (Intercept)    39.6       4.35      9.10 0.00000777
#> 2     4 wt             -5.65      1.85     -3.05 0.0137    
#> 3     6 (Intercept)    28.4       4.18      6.79 0.00105   
#> 4     6 wt             -2.78      1.33     -2.08 0.0918    
#> # ℹ 2 more rows
```
…
### Multiple combinations

What if you want to call a function for every combination of inputs? You
can use [`expand.grid()`](https://rdrr.io/r/base/expand.grid.html) (or
[`tidyr::expand_grid()`](https://tidyr.tidyverse.org/reference/expand_grid.html))
to generate the data frame and then repeat the same pattern as above:

``` r
df <- expand.grid(mean = c(-1, 0, 1), sd = c(1, 10, 100))

df |>
  rowwise() |>
  mutate(data = list(rnorm(10, mean, sd)))
#> # A tibble: 9 × 3
#> # Rowwise: 
#>    mean    sd data      
#>   <dbl> <dbl> <list>    
#> 1    -1     1 <dbl [10]>
#> 2     0     1 <dbl [10]>
#> 3     1     1 <dbl [10]>
#> 4    -1    10 <dbl [10]>
#> # ℹ 5 more rows
```
…
