…
``` r
library(nycflights13)
# Drop unimportant variables so it's easier to understand the join results.
flights2 <- flights |> select(year:day, hour, origin, dest, tailnum, carrier)

flights2 |>
  left_join(airlines)
#> Joining with `by = join_by(carrier)`
#> # A tibble: 336,776 × 9
#>    year month   day  hour origin dest  tailnum carrier name            
#>   <int> <int> <int> <dbl> <chr>  <chr> <chr>   <chr>   <chr>           
#> 1  2013     1     1     5 EWR    IAH   N14228  UA      United Air Line…
#> 2  2013     1     1     5 LGA    IAH   N24211  UA      United Air Line…
#> 3  2013     1     1     5 JFK    MIA   N619AA  AA      American Airlin…
#> 4  2013     1     1     5 JFK    BQN   N804JB  B6      JetBlue Airways 
#> 5  2013     1     1     6 LGA    ATL   N668DN  DL      Delta Air Lines…
#> # ℹ 336,771 more rows
```
…
As well as `x` and `y`, each mutating join takes an argument `by` that
controls which variables are used to match observations in the two
tables. There are a few ways to specify it, as I illustrate below with
various tables from nycflights13:

- `NULL`, the default. dplyr will will use all variables that appear in
  both tables, a **natural** join. For example, the flights and weather
  tables match on their common variables: year, month, day, hour and
  origin.

  ``` r
  flights2 |> left_join(weather)
  #> Joining with `by = join_by(year, month, day, hour, origin)`
  #> # A tibble: 336,776 × 18
  #>    year month   day  hour origin dest  tailnum carrier  temp  dewp
  #>   <int> <int> <int> <dbl> <chr>  <chr> <chr>   <chr>   <dbl> <dbl>
  #> 1  2013     1     1     5 EWR    IAH   N14228  UA       39.0  28.0
  #> 2  2013     1     1     5 LGA    IAH   N24211  UA       39.9  25.0
  #> 3  2013     1     1     5 JFK    MIA   N619AA  AA       39.0  27.0
  #> 4  2013     1     1     5 JFK    BQN   N804JB  B6       39.0  27.0
  #> 5  2013     1     1     6 LGA    ATL   N668DN  DL       39.9  25.0
  #> # ℹ 336,771 more rows
  #> # ℹ 8 more variables: humid <dbl>, wind_dir <dbl>, wind_speed <dbl>,
  #> #   wind_gust <dbl>, precip <dbl>, pressure <dbl>, visib <dbl>,
  #> #   time_hour <dttm>
  ```

- A character vector, `by = "x"`. Like a natural join, but uses only
  some of the common variables. For example, `flights` and `planes` have
  `year` columns, but they mean different things so we only want to join
  by `tailnum`.

  ``` r
  flights2 |> left_join(planes, by = "tailnum")
  #> # A tibble: 336,776 × 16
  #>   year.x month   day  hour origin dest  tailnum carrier year.y type    
  #>    <int> <int> <int> <dbl> <chr>  <chr> <chr>   <chr>    <int> <chr>   
  #> 1   2013     1     1     5 EWR    IAH   N14228  UA        1999 Fixed w…
  #> 2   2013     1     1     5 LGA    IAH   N24211  UA        1998 Fixed w…
  #> 3   2013     1     1     5 JFK    MIA   N619AA  AA        1990 Fixed w…
  #> 4   2013     1     1     5 JFK    BQN   N804JB  B6        2012 Fixed w…
  #> 5   2013     1     1     6 LGA    ATL   N668DN  DL        1991 Fixed w…
  #> # ℹ 336,771 more rows
  #> # ℹ 6 more variables: manufacturer <chr>, model <chr>, engines <int>,
  #> #   seats <int>, speed <int>, engine <chr>
  ```

  Note that the year columns in the output are disambiguated with a
  suffix.

- A named character vector: `by = c("x" = "a")`. This will match
  variable `x` in table `x` to variable `a` in table `y`. The variables
  from use will be used in the output.

  Each flight has an origin and destination `airport`, so we need to
  specify which one we want to join to:

  ``` r
  flights2 |> left_join(airports, c("dest" = "faa"))
  #> # A tibble: 336,776 × 15
  #>    year month   day  hour origin dest  tailnum carrier name         lat
  #>   <int> <int> <int> <dbl> <chr>  <chr> <chr>   <chr>   <chr>      <dbl>
  #> 1  2013     1     1     5 EWR    IAH   N14228  UA      George Bu…  30.0
  #> 2  2013     1     1     5 LGA    IAH   N24211  UA      George Bu…  30.0
  #> 3  2013     1     1     5 JFK    MIA   N619AA  AA      Miami Intl  25.8
  #> 4  2013     1     1     5 JFK    BQN   N804JB  B6      NA          NA  
  #> 5  2013     1     1     6 LGA    ATL   N668DN  DL      Hartsfiel…  33.6
  #> # ℹ 336,771 more rows
  #> # ℹ 5 more variables: lon <dbl>, alt <dbl>, tz <dbl>, dst <chr>,
  #> #   tzone <chr>
  flights2 |> left_join(airports, c("origin" = "faa"))
  #> # A tibble: 336,776 × 15
  #>    year month   day  hour origin dest  tailnum carrier name         lat
  #>   <int> <int> <int> <dbl> <chr>  <chr> <chr>   <chr>   <chr>      <dbl>
  #> 1  2013     1     1     5 EWR    IAH   N14228  UA      Newark Li…  40.7
  #> 2  2013     1     1     5 LGA    IAH   N24211  UA      La Guardia  40.8
  #> 3  2013     1     1     5 JFK    MIA   N619AA  AA      John F Ke…  40.6
  #> 4  2013     1     1     5 JFK    BQN   N804JB  B6      John F Ke…  40.6
  #> 5  2013     1     1     6 LGA    ATL   N668DN  DL      La Guardia  40.8
  #> # ℹ 336,771 more rows
  #> # ℹ 5 more variables: lon <dbl>, alt <dbl>, tz <dbl>, dst <chr>,
  #> #   tzone <chr>
  ```
…
- `semi_join(x, y)` **keeps** all observations in `x` that have a match
  in `y`.
- `anti_join(x, y)` **drops** all observations in `x` that have a match
  in `y`.

These are most useful for diagnosing join mismatches. For example, there
are many flights in the nycflights13 dataset that don’t have a matching
tail number in the planes table:

``` r
library("nycflights13")
flights |>
  anti_join(planes, by = "tailnum") |>
  count(tailnum, sort = TRUE)
#> # A tibble: 722 × 2
#>   tailnum     n
#>   <chr>   <int>
#> 1 NA       2512
#> 2 N725MQ    575
#> 3 N722MQ    513
#> 4 N723MQ    507
#> 5 N713MQ    483
#> # ℹ 717 more rows
```
…
