Sample n rows from a table — sample • dplyr
…
#> # A tibble: 9 x 11
#> # Groups:   cyl [3]
#>     mpg   cyl  disp    hp  drat    wt  qsec    vs    am  gear  carb
#>   <dbl> <dbl> <dbl> <dbl> <dbl> <dbl> <dbl> <dbl> <dbl> <dbl> <dbl>
#> 1  22.8     4 141.     95  3.92  3.15  22.9     1     0     4     2
#> 2  22.8     4 108      93  3.85  2.32  18.6     1     1     4     1
#> 3  30.4     4  95.1   113  3.77  1.51  16.9     1     1     5     2
#> 4  17.8     6 168.    123  3.92  3.44  18.9     1     0     4     4
#> 5  19.2     6 168.    123  3.92  3.44  18.3     1     0     4     4
#> 6  21       6 160     110  3.9   2.62  16.5     0     1     4     4
#> 7  10.4     8 472     205  2.93  5.25  18.0     0     0     3     4
#> 8  18.7     8 360     175  3.15  3.44  17.0     0     0     3     2
#> 9  13.3     8 350     245  3.73  3.84  15.4     0     0     3     4
sample_n(by_cyl, 10, replace = TRUE)
#> # A tibble: 30 x 11
#> # Groups:   cyl [3]
#>      mpg   cyl  disp    hp  drat    wt  qsec    vs    am  gear  carb
#>    <dbl> <dbl> <dbl> <dbl> <dbl> <dbl> <dbl> <dbl> <dbl> <dbl> <dbl>
#>  1  22.8     4 141.     95  3.92  3.15  22.9     1     0     4     2
#>  2  27.3     4  79      66  4.08  1.94  18.9     1     1     4     1
#>  3  30.4     4  75.7    52  4.93  1.62  18.5     1     1     4     2
#>  4  27.3     4  79      66  4.08  1.94  18.9     1     1     4     1
#>  5  32.4     4  78.7    66  4.08  2.2   19.5     1     1     4     1
#>  6  30.4     4  95.1   113  3.77  1.51  16.9     1     1     5     2
#>  7  22.8     4 141.     95  3.92  3.15  22.9     1     0     4     2
#>  8  22.8     4 141.     95  3.92  3.15  22.9     1     0     4     2
#>  9  32.4     4  78.7    66  4.08  2.2   19.5     1     1     4     1
#> 10  32.4     4  78.7    66  4.08  2.2   19.5     1     1     4     1
#> # ... with 20 more rows
…
sample_frac(by_cyl, 0.2)
#> # A tibble: 6 x 11
#> # Groups:   cyl [3]
#>     mpg   cyl  disp    hp  drat    wt  qsec    vs    am  gear  carb
#>   <dbl> <dbl> <dbl> <dbl> <dbl> <dbl> <dbl> <dbl> <dbl> <dbl> <dbl>
#> 1  21.5     4  120.    97  3.7   2.46  20.0     1     0     3     1
#> 2  26       4  120.    91  4.43  2.14  16.7     0     1     5     2
#> 3  21.4     6  258    110  3.08  3.22  19.4     1     0     3     1
#> 4  10.4     8  460    215  3     5.42  17.8     0     0     3     4
#> 5  10.4     8  472    205  2.93  5.25  18.0     0     0     3     4
#> 6  16.4     8  276.   180  3.07  4.07  17.4     0     0     3     3
sample_frac(by_cyl, 1, replace = TRUE)
#> # A tibble: 32 x 11
#> # Groups:   cyl [3]
#>      mpg   cyl  disp    hp  drat    wt  qsec    vs    am  gear  carb
#>    <dbl> <dbl> <dbl> <dbl> <dbl> <dbl> <dbl> <dbl> <dbl> <dbl> <dbl>
#>  1  26       4 120.     91  4.43  2.14  16.7     0     1     5     2
#>  2  27.3     4  79      66  4.08  1.94  18.9     1     1     4     1
#>  3  30.4     4  95.1   113  3.77  1.51  16.9     1     1     5     2
#>  4  33.9     4  71.1    65  4.22  1.84  19.9     1     1     4     1
#>  5  30.4     4  75.7    52  4.93  1.62  18.5     1     1     4     2
#>  6  21.4     4 121     109  4.11  2.78  18.6     1     1     4     2
#>  7  30.4     4  75.7    52  4.93  1.62  18.5     1     1     4     2
#>  8  33.9     4  71.1    65  4.22  1.84  19.9     1     1     4     1
#>  9  21.5     4 120.     97  3.7   2.46  20.0     1     0     3     1
#> 10  30.4     4  95.1   113  3.77  1.51  16.9     1     1     5     2
#> # ... with 22 more rows
…
