Select top (or bottom) n rows (by value) — top_n • dplyr
…
if (require("Lahman")) {
# Find 10 players with most games
# A little nicer with %>%
tbl_df(Batting) %>%
  group_by(playerID) %>%
  tally(G) %>%
  top_n(10)

# Find year with most games for each player
tbl_df(Batting) %>% group_by(playerID) %>% top_n(1, G)
}
#> Selecting by n
#> # A tibble: 19,791 x 22
#> # Groups:   playerID [18,915]
#>    playerID yearID stint teamID lgID      G    AB     R     H   X2B   X3B    HR
#>    <chr>     <int> <int> <fct>  <fct> <int> <int> <int> <int> <int> <int> <int>
#>  1 aardsda…   2009     1 SEA    AL       73     0     0     0     0     0     0
#>  2 aaronha…   1963     1 ML1    NL      161   631   121   201    29     4    44
#>  3 aaronto…   1962     1 ML1    NL      141   334    54    77    20     2     8
#>  4 aasedo01   1986     1 BAL    AL       66     0     0     0     0     0     0
#>  5 abadan01   2003     1 BOS    AL        9    17     1     2     0     0     0
#>  6 abadfe01   2014     1 OAK    AL       69     0     0     0     0     0     0
#>  7 abadijo…   1875     1 PH3    NA       11    45     3    10     0     0     0
#>  8 abbated…   1904     1 BSN    NL      154   579    76   148    18    10     3
#>  9 abbeybe…   1892     1 WAS    NL       27    75     5     9     1     0     0
#> 10 abbeych…   1895     1 WAS    NL      132   511   102   141    14    10     8
#> # ... with 19,781 more rows, and 10 more variables: RBI <int>, SB <int>,
#> #   CS <int>, BB <int>, SO <int>, IBB <int>, HBP <int>, SH <int>, SF <int>,
#> #   GIDP <int>
…
